# 3ds Max Wavefront OBJ Exporter v0.97b - (c)2007 guruware
# File Created: 16.11.2020 22:47:00

mtllib Chapel.mtl

#
# object Chapel
#

v  -384.6443 313.9431 898.9029
v  -384.0480 235.1401 992.8297
v  -384.0964 243.8167 992.7016
v  -384.6443 322.3933 898.9029
v  -343.1478 235.0242 992.8276
v  -343.1498 243.8166 992.7015
v  -342.6019 314.0001 898.9032
v  -342.6019 322.3933 898.9030
v  -380.6470 236.5191 991.2475
v  -380.5499 313.9429 898.9748
v  -346.4077 236.4032 991.2474
v  -346.4077 314.0004 898.9029
v  -380.6470 -0.7270 991.2474
v  -346.4077 -0.7270 991.2474
v  -346.4077 -0.7270 898.9028
v  -381.1502 -0.7255 898.9992
v  724.7173 313.9431 898.9030
v  727.7427 235.1400 992.8297
v  727.6944 243.8166 992.7015
v  724.7173 322.3930 898.9033
v  768.8166 243.8166 992.7016
v  768.8189 235.0242 992.8278
v  769.3646 314.0002 898.9031
v  769.3647 322.3932 898.9030
v  731.4688 236.5190 991.2475
v  729.0399 313.9431 898.9029
v  765.7084 236.4031 991.2474
v  765.6577 313.9587 898.9029
v  731.4687 -0.7271 991.2474
v  765.7083 -0.7271 991.2474
v  765.6068 -0.7271 898.9029
v  730.2049 -0.7271 898.9028
v  -384.0964 243.8166 73.5141
v  -384.0480 235.1400 73.3860
v  -384.6443 313.9430 167.3128
v  -384.6443 322.3933 167.3128
v  -343.1478 235.0242 73.3880
v  -343.1498 243.8166 73.5141
v  -342.6019 314.0000 167.3125
v  -342.6019 322.3932 167.3127
v  -380.6470 236.5190 74.9682
v  -380.6472 313.9430 167.3128
v  -346.4077 236.4031 74.9682
v  -346.4077 314.0003 167.3128
v  -380.6470 -0.7271 74.9683
v  -346.4077 -0.7271 74.9683
v  -346.4077 -0.7271 167.3128
v  -380.6472 -0.7271 167.3128
v  727.9085 243.8166 73.5141
v  727.9567 235.1400 73.3860
v  724.9315 313.9430 167.3128
v  724.9315 322.3930 167.3124
v  768.8166 243.8166 73.5141
v  768.8189 235.0242 73.3880
v  769.3646 314.0002 167.3127
v  769.3647 322.3932 167.3128
v  731.4688 236.5190 74.9682
v  729.0399 313.9431 167.3128
v  765.7084 236.4031 74.9682
v  765.5816 313.7621 167.5328
v  731.4687 -0.7271 74.9683
v  765.7083 -0.7271 74.9683
v  767.6287 -0.7272 167.2397
v  730.2049 -0.7271 167.3128
v  -383.9610 425.2984 156.1231
v  -381.8150 939.0519 528.0784
v  -354.9937 938.8053 528.0754
v  -356.4376 425.3478 156.1231
v  741.8771 425.3470 156.1231
v  740.9921 938.3579 528.0709
v  769.1368 938.3579 528.0709
v  772.7595 425.3470 156.1231
v  -383.0712 419.8109 164.7845
v  -355.6054 420.0412 161.7110
v  -380.6472 420.3905 167.3127
v  740.9887 420.0420 161.7123
v  771.8104 419.8595 164.7845
v  765.5051 420.3905 167.3127
v  769.1154 925.2393 533.1078
v  762.9788 919.9529 533.1078
v  -347.8842 236.6768 619.6217
v  -347.8842 281.4921 598.9590
v  -347.8842 281.4921 467.1966
v  -347.8842 236.6768 446.5939
v  399.3449 316.3340 188.7731
v  410.2664 335.4935 188.7731
v  436.0323 335.4935 188.7731
v  446.9538 316.3340 188.7731
v  -22.2526 316.3340 188.7731
v  -14.9550 290.2065 188.7731
v  -77.1591 290.2065 188.7731
v  -69.8615 316.3340 188.7731
v  -376.9096 923.2073 533.1078
v  -381.8356 925.9326 533.1078
v  -354.9937 938.8053 538.1403
v  -381.8150 939.0519 538.1372
v  -383.9610 425.2984 910.0925
v  -356.4376 425.3479 910.0925
v  769.1368 938.3579 538.1448
v  740.9921 938.3579 538.1448
v  741.8771 425.3471 910.0925
v  771.9756 425.3471 909.9760
v  -380.3467 420.3897 898.8148
v  -355.6054 420.0413 905.1948
v  -383.0712 419.8109 901.4312
v  740.9887 420.0421 905.1935
v  765.5051 420.3905 898.9028
v  771.0267 419.8595 901.3146
v  740.9720 925.2393 533.1078
v  399.3449 316.3340 877.5148
v  392.0474 290.2065 877.5148
v  454.2514 290.2065 877.5148
v  446.9538 316.3340 877.5148
v  -22.2526 316.3340 877.5148
v  -33.1742 335.4935 877.5148
v  -58.9399 335.4935 877.5148
v  -69.8615 316.3340 877.5148
v  -355.0242 925.6864 533.1078
v  -380.6470 251.1037 445.5221
v  -380.6470 298.7636 466.7567
v  -380.6470 213.5152 439.1074
v  -347.8842 201.3295 441.9017
v  -380.6470 333.7148 498.5486
v  -347.8842 314.3556 501.0892
v  -348.0302 336.3579 533.1078
v  -380.6470 357.1665 533.1078
v  -380.6470 1.3297 438.1277
v  -347.8842 0.5164 440.8948
v  -20.1704 337.7401 167.3128
v  -10.4921 303.7885 167.3128
v  -6.4245 276.9695 167.3128
v  -12.7484 269.5989 188.7731
v  -31.9151 362.5797 167.3127
v  -33.1742 335.4935 188.7731
v  -46.0189 349.4052 188.7731
v  -46.0135 380.4633 167.3127
v  -71.7560 337.7150 167.3128
v  -59.8850 362.6586 167.3128
v  -58.9399 335.4935 188.7731
v  -81.2915 303.7589 167.3128
v  -84.0085 277.2627 167.3128
v  -79.7216 269.5989 188.7731
v  -79.7011 164.9414 188.7731
v  -83.9677 140.8247 167.3128
v  -12.4130 164.9414 188.7731
v  -6.0487 140.8247 167.3128
v  459.4880 303.6678 167.3128
v  454.2514 290.2065 188.7731
v  449.0433 337.8191 167.3128
v  461.8928 276.9717 167.3128
v  456.4580 269.5989 188.7731
v  437.3162 362.6049 167.3128
v  423.1875 349.4052 188.7731
v  423.2014 380.3099 167.3127
v  397.4808 337.7383 167.3128
v  409.3664 362.6689 167.3128
v  392.0474 290.2065 188.7731
v  387.0130 303.7895 167.3128
v  384.2169 277.1171 167.3128
v  389.4848 269.5989 188.7731
v  389.5053 164.9414 188.7731
v  384.2492 140.8247 167.3128
v  456.7934 164.9414 188.7731
v  462.2220 140.8247 167.3128
v  -380.6470 251.1037 620.6935
v  -380.6470 298.7636 599.4589
v  -380.6470 213.5152 627.1083
v  -347.8842 201.3295 624.3140
v  -380.6470 333.7148 567.6671
v  -347.8842 314.3556 565.1264
v  -380.6470 1.3297 628.0879
v  -347.8842 0.5164 625.3209
v  -11.3274 303.7885 898.9028
v  -20.1704 337.7401 898.9028
v  -14.9550 290.2065 877.5148
v  -8.0651 276.9695 898.9028
v  -12.7484 269.5989 877.5148
v  -31.9151 362.5797 898.9028
v  -46.0135 380.4633 898.9028
v  -46.0189 349.4052 877.5148
v  -59.8850 362.6586 898.9028
v  -71.7560 337.7150 898.9028
v  -81.3781 303.7589 898.9028
v  -77.1591 290.2065 877.5148
v  -86.7842 277.2627 898.9028
v  -85.1222 140.8247 898.9028
v  -79.7011 164.9414 877.5148
v  -79.7216 269.5989 877.5148
v  -8.6704 140.8247 898.9028
v  -12.4130 164.9414 877.5148
v  457.8032 303.6678 898.9028
v  449.0433 337.8191 898.9028
v  460.2080 276.9717 898.9028
v  456.4580 269.5989 877.5148
v  437.3162 362.6049 898.9028
v  423.2014 380.3099 898.9028
v  423.1875 349.4052 877.5148
v  436.0323 335.4935 877.5148
v  410.2664 335.4935 877.5148
v  409.3664 362.6689 898.9028
v  397.4808 337.7383 898.9028
v  387.3787 303.7895 898.9028
v  384.5826 277.1171 898.9028
v  384.6149 140.8247 898.9028
v  389.5053 164.9414 877.5148
v  389.4848 269.5989 877.5148
v  460.5372 140.8247 898.9028
v  456.7934 164.9414 877.5148
v  765.6068 -0.7271 898.9028
v  -381.1502 -0.7257 898.9991
v  -115.9417 1064.6473 615.3002
v  -115.9417 1064.6473 444.1375
v  -201.5231 1350.0497 529.7188
v  -287.1044 1064.6473 615.3002
v  -287.1044 1064.6473 444.1375
v  -280.4025 1065.4886 608.8394
v  -280.4025 1065.4886 450.8394
v  -280.4025 806.5807 450.8394
v  -280.4025 806.5807 608.8394
v  -122.6515 1065.4806 608.8162
v  -122.6437 1065.4886 450.8394
v  -161.5183 982.4039 608.8947
v  -164.3619 997.8149 608.8876
v  -164.3781 997.7980 450.8394
v  -161.5368 982.3845 450.8394
v  -161.5275 923.8760 450.8394
v  -236.1970 923.8760 450.8394
v  -236.1970 923.8760 608.8394
v  -161.5275 923.8760 608.8394
v  -236.1877 982.3845 450.8394
v  -236.1877 982.3846 608.8394
v  -233.3465 997.7980 450.8394
v  -233.3465 997.7980 608.8394
v  -225.2553 1012.2123 450.8394
v  -225.0105 1012.4216 608.8394
v  -213.1461 1022.5619 450.8394
v  -213.1461 1022.5619 608.8394
v  -198.8623 1029.9877 450.8394
v  -198.8441 1030.0067 608.8936
v  -184.5784 1022.5619 450.8394
v  -184.5623 1022.5787 608.8876
v  -172.4692 1012.2123 450.8394
v  -172.4958 1012.1844 608.8849
v  -122.6437 806.5807 608.8394
v  -122.6437 806.5807 450.8394
v  764.4631 1011.2296 527.0141
v  750.8340 1011.2296 527.0141
v  750.8340 1011.2296 538.7010
v  764.4631 1011.2296 538.7010
v  767.3373 946.1127 541.5753
v  747.9598 946.1127 541.5753
v  747.9598 938.6597 541.5753
v  767.3373 938.6597 541.5753
v  764.4631 983.0562 538.7010
v  750.8340 983.0562 538.7010
v  750.8340 946.1127 538.7010
v  764.4631 946.1127 538.7010
v  764.4631 995.6564 553.9438
v  750.8340 995.6564 553.9438
v  750.8340 983.0562 553.9438
v  764.4631 983.0562 553.9438
v  764.2068 995.6564 538.7126
v  750.8340 995.6564 538.7010
v  767.3373 938.6597 524.1399
v  767.3373 946.1127 524.1399
v  747.9598 946.1127 524.1399
v  747.9598 938.6597 524.1399
v  750.8340 946.1127 527.0141
v  750.8340 983.0562 527.0141
v  764.4631 983.0562 527.0141
v  764.4631 946.1127 527.0141
v  750.8340 983.0562 511.7713
v  750.8340 995.6564 511.7713
v  764.4631 995.6564 511.7713
v  764.4631 983.0562 511.7713
v  750.8340 995.6564 527.0141
v  764.4631 995.6564 527.0141
v  -198.2941 1017.2268 531.1075
v  -188.5011 1014.0050 538.2224
v  -186.1893 1014.0050 531.1075
v  -188.5011 1014.0050 523.9926
v  -194.5535 1014.0050 519.5953
v  -202.0346 1014.0050 519.5953
v  -208.0869 1014.0050 523.9926
v  -210.3987 1014.0050 531.1075
v  -208.0869 1014.0050 538.2224
v  -202.0346 1014.0050 542.6197
v  -194.5535 1014.0050 542.6197
v  -181.2995 1005.1924 518.7603
v  -177.2877 1005.1924 531.1075
v  -191.8026 1005.1924 511.1293
v  -204.7852 1005.1924 511.1293
v  -215.2885 1005.1924 518.7603
v  -219.3003 1005.1924 531.1075
v  -215.2885 1005.1924 543.4547
v  -204.7852 1005.1924 551.0857
v  -191.8026 1005.1924 551.0857
v  -181.2995 1005.1924 543.4547
v  -173.9445 993.1207 531.1075
v  -178.5948 993.1207 516.7952
v  -190.7695 993.1207 507.9497
v  -205.8183 993.1207 507.9497
v  -217.9932 993.1207 516.7952
v  -222.6436 993.1207 531.1075
v  -217.9932 993.1207 545.4197
v  -205.8183 993.1207 554.2653
v  -190.7695 993.1207 554.2653
v  -178.5948 993.1207 545.4197
v  -178.5948 948.6710 516.7952
v  -173.9445 948.6710 531.1075
v  -190.7695 948.6710 507.9497
v  -205.8183 948.6710 507.9497
v  -217.9932 948.6710 516.7952
v  -222.6436 948.6710 531.1075
v  -217.9932 948.6710 545.4198
v  -205.8183 948.6710 554.2653
v  -190.7695 948.6710 554.2653
v  -178.5948 948.6710 545.4197
v  -176.4249 959.7111 531.1075
v  -180.6015 959.7111 543.9619
v  -215.9865 959.7111 518.2532
v  -205.0519 959.7111 510.3087
v  144.8272 -1.4978 1199.1155
v  153.2993 -0.7594 1199.0509
v  148.4262 54.7583 1194.5376
v  139.9541 54.0199 1194.6023
v  144.8272 -5.4797 1153.6033
v  153.2993 -4.7412 1153.5386
v  139.9542 49.9785 1148.4075
v  148.4262 50.7168 1148.3428
v  138.9438 61.7539 1150.4954
v  147.4159 62.4923 1150.4308
v  138.2041 70.9156 1158.2128
v  146.6762 71.6540 1158.1482
v  146.4054 75.7471 1169.4271
v  137.9334 75.0087 1169.4917
v  138.2041 72.9364 1181.3101
v  146.6762 73.6748 1181.2456
v  138.9438 65.2539 1190.5012
v  147.4159 65.9923 1190.4366
v  -207.0356 1033.4434 464.7584
v  -190.6049 1033.4434 464.7584
v  -190.6049 1018.1459 464.7584
v  -207.0356 1018.1459 464.7584
v  -190.6049 1018.1459 595.3879
v  -190.6049 1033.4434 595.3879
v  -207.0356 1033.4434 595.3879
v  -207.0356 1018.1459 595.3879
v  -176.4249 948.6710 531.1075
v  -180.6015 948.6710 518.2531
v  -180.6015 948.6710 543.9619
v  -191.5359 948.6710 551.9063
v  -205.0519 948.6710 551.9063
v  -215.9865 948.6710 543.9619
v  -220.1631 948.6710 531.1075
v  -215.9865 948.6710 518.2532
v  -205.0519 948.6710 510.3087
v  -191.5359 948.6710 510.3087
v  -205.0519 959.7111 551.9063
v  -215.9865 959.7111 543.9619
v  -220.1631 959.7111 531.1075
v  -191.5359 959.7111 551.9063
v  -191.5359 959.7111 510.3087
v  -180.6015 959.7111 518.2531
v  222.2444 -1.3327 1364.8174
v  230.6466 -0.0202 1364.7528
v  222.0092 55.0376 1360.2396
v  213.6069 53.7249 1360.3042
v  222.5152 -5.3056 1319.3053
v  230.9174 -3.9927 1319.2405
v  213.8818 49.6929 1314.1094
v  222.2841 51.0055 1314.0447
v  212.0729 61.3722 1316.1973
v  220.4752 62.6851 1316.1326
v  210.7119 70.4625 1323.9147
v  219.1142 71.7752 1323.8499
v  218.5656 75.8406 1335.1289
v  210.1635 74.5275 1335.1937
v  210.5745 72.4785 1347.0121
v  218.9767 73.7916 1346.9475
v  211.8349 64.8642 1356.2030
v  220.2372 66.1770 1356.1387
v  385.2141 -4.8506 1440.2529
v  392.6919 -6.9688 1436.7999
v  406.6786 47.0912 1433.9316
v  399.2007 49.2091 1437.3845
v  366.6272 -2.5424 1398.5825
v  374.1049 -4.6603 1395.1296
v  380.3352 51.5525 1395.0891
v  387.8128 49.4343 1391.6364
v  384.4699 62.6075 1397.2627
v  391.9478 60.4896 1393.8101
v  390.0244 70.3869 1404.5206
v  397.5022 68.2688 1401.0676
v  402.9879 70.6876 1411.4648
v  395.5101 72.8052 1414.9177
v  399.4572 69.2154 1425.6683
v  406.9351 67.0976 1422.2153
v  400.8080 60.5785 1433.8916
v  408.2860 58.4604 1430.4390
v  -132.5797 6.4960 1412.7030
v  -132.5564 -2.0081 1412.6372
v  -78.5828 -1.9714 1427.2380
v  -78.6062 6.5328 1427.3038
v  -120.9209 6.8696 1368.5313
v  -120.8974 -1.6344 1368.4653
v  -66.7723 6.9120 1382.4696
v  -66.7489 -1.5921 1382.4037
v  -56.3563 6.8948 1388.4314
v  -56.3326 -1.6094 1388.3657
v  -50.3164 6.8313 1398.8025
v  -50.2929 -1.6728 1398.7367
v  -50.2477 -1.7653 1410.7382
v  -50.2715 6.7387 1410.8038
v  -56.2334 6.6416 1421.2197
v  -56.2096 -1.8624 1421.1541
v  -66.6046 6.5665 1427.2590
v  -66.5811 -1.9378 1427.1934
v  458.4027 83.3179 1151.9528
v  442.5821 83.3179 1151.9528
v  442.5821 83.3179 1165.5189
v  458.4027 83.3179 1165.5189
v  461.7390 7.7308 1168.8552
v  439.2458 7.7308 1168.8552
v  439.2458 -0.9205 1168.8552
v  461.7390 -0.9205 1168.8552
v  458.4027 50.6145 1165.5189
v  442.5821 50.6145 1165.5189
v  442.5821 7.7308 1165.5189
v  458.4027 7.7308 1165.5189
v  458.4027 65.2408 1183.2125
v  442.5821 65.2408 1183.2125
v  442.5821 50.6145 1183.2125
v  458.4027 50.6145 1183.2125
v  458.1052 65.2408 1165.5323
v  442.5821 65.2408 1165.5189
v  461.7390 -0.9205 1148.6163
v  461.7390 7.7308 1148.6163
v  439.2458 7.7308 1148.6163
v  439.2458 -0.9205 1148.6163
v  442.5821 7.7308 1151.9528
v  442.5821 50.6145 1151.9528
v  458.4027 50.6145 1151.9528
v  458.4027 7.7308 1151.9528
v  442.5821 50.6145 1134.2590
v  442.5821 65.2407 1134.2590
v  458.4027 65.2407 1134.2590
v  458.4027 50.6145 1134.2590
v  442.5821 65.2408 1151.9528
v  458.4027 65.2408 1151.9528
v  -61.3174 81.3777 1247.0109
v  -77.1380 81.3777 1247.0109
v  -77.1380 81.3777 1260.5770
v  -61.3174 81.3777 1260.5770
v  -57.9811 5.7906 1263.9135
v  -80.4743 5.7906 1263.9135
v  -80.4743 -2.8607 1263.9135
v  -57.9811 -2.8607 1263.9135
v  -61.3174 48.6743 1260.5770
v  -77.1380 48.6743 1260.5770
v  -77.1380 5.7906 1260.5770
v  -61.3174 5.7906 1260.5770
v  -61.3174 63.3005 1278.2706
v  -77.1380 63.3005 1278.2706
v  -77.1380 48.6743 1278.2706
v  -61.3174 48.6743 1278.2706
v  -61.6149 63.3005 1260.5905
v  -77.1380 63.3005 1260.5770
v  -57.9811 -2.8607 1243.6746
v  -57.9811 5.7906 1243.6746
v  -80.4743 5.7906 1243.6746
v  -80.4743 -2.8607 1243.6746
v  -77.1380 5.7906 1247.0109
v  -77.1380 48.6743 1247.0109
v  -61.3174 48.6743 1247.0109
v  -61.3174 5.7906 1247.0109
v  -77.1380 48.6743 1229.3173
v  -77.1380 63.3005 1229.3173
v  -61.3174 63.3005 1229.3173
v  -61.3174 48.6743 1229.3173
v  -77.1380 63.3005 1247.0109
v  -61.3174 63.3005 1247.0109
# 482 vertices

vn -1.0000 -0.0028 0.0037
vn 0.0000 0.0146 0.9999
vn 1.0000 0.0002 0.0060
vn 0.0000 0.7666 0.6422
vn 0.0114 -0.7660 -0.6427
vn -0.0023 -0.7536 -0.6573
vn -0.0055 -0.7655 -0.6435
vn 0.0000 0.0000 1.0000
vn 1.0000 0.0000 -0.0000
vn -1.0000 0.0011 0.0027
vn 0.0016 -0.0078 -1.0000
vn -0.9996 -0.0026 0.0298
vn 0.0049 -0.7661 -0.6427
vn -0.0010 -0.7656 -0.6434
vn -0.0023 -0.7534 -0.6575
vn 1.0000 -0.0001 -0.0009
vn -0.9998 -0.0021 0.0191
vn -0.0000 0.0000 -1.0000
vn -1.0000 -0.0028 -0.0037
vn 0.0000 0.0145 -0.9999
vn 1.0000 0.0002 -0.0060
vn 0.0000 0.7666 -0.6422
vn 0.0054 -0.7662 0.6426
vn -0.0023 -0.7536 0.6573
vn -0.0055 -0.7655 0.6435
vn 0.0000 0.0000 -1.0000
vn -1.0000 0.0000 -0.0000
vn -0.9996 -0.0026 -0.0298
vn 0.0052 -0.7661 0.6427
vn 0.0409 -0.7657 0.6418
vn -0.0023 -0.7535 0.6574
vn 0.9999 0.0037 -0.0113
vn -0.9998 -0.0021 -0.0191
vn 0.0044 0.0235 0.9997
vn 0.0021 0.5865 -0.8099
vn 0.0000 0.5870 -0.8096
vn 0.0301 -0.9802 0.1958
vn -0.0212 -0.9878 0.1545
vn 0.3627 -0.5485 0.7534
vn -0.0295 -0.7985 -0.6013
vn 0.0276 -0.7986 -0.6012
vn -0.4102 -0.5352 0.7384
vn 0.0021 0.5865 0.8099
vn 0.0016 0.5869 0.8096
vn 0.0333 -0.9826 -0.1827
vn -0.0263 -0.9872 -0.1572
vn 0.3772 -0.5452 -0.7487
vn -0.9992 -0.0215 -0.0342
vn -0.0384 -0.7842 0.6194
vn -0.9988 0.0280 0.0395
vn 0.0387 -0.7844 0.6190
vn 0.0000 1.0000 -0.0000
vn -0.4039 -0.5369 -0.7406
vn 0.9991 0.0242 0.0358
vn 0.0092 1.0000 -0.0000
vn 0.9990 -0.0235 -0.0388
vn 0.0001 0.5929 0.8053
vn 0.0001 0.5921 -0.8058
vn 0.0000 -0.9981 0.0622
vn -0.1746 -0.3178 0.9320
vn -0.1543 -0.2504 0.9558
vn -0.2773 -0.5135 0.8121
vn -0.3288 -0.5627 0.7585
vn -0.1068 -0.0928 0.9899
vn -0.1046 -0.0538 0.9931
vn -0.4487 -0.6863 0.5723
vn -0.4266 -0.6782 0.5984
vn -0.5395 -0.8420 -0.0000
vn -0.5378 -0.8430 -0.0000
vn -0.0845 -0.0050 0.9964
vn -0.0843 -0.0050 0.9964
vn -0.9030 -0.2551 -0.3457
vn -0.9461 -0.1252 -0.2989
vn -0.5676 -0.4809 -0.6683
vn -0.7668 -0.3950 -0.5060
vn 0.7691 -0.3975 -0.5005
vn 0.5700 -0.4815 -0.6657
vn 0.9075 -0.2542 -0.3344
vn 0.9807 0.0003 -0.1955
vn 0.0000 0.6648 -0.7471
vn -0.9593 -0.0028 -0.2825
vn 0.9641 -0.1081 -0.2425
vn -0.8926 -0.2627 -0.3663
vn -0.9547 -0.0931 -0.2826
vn -0.5656 -0.4823 -0.6690
vn -0.7661 -0.3948 -0.5072
vn 0.7692 -0.3979 -0.4999
vn 0.5695 -0.4829 -0.6652
vn 0.8948 -0.2646 -0.3595
vn 0.9712 0.0002 -0.2382
vn -0.9697 -0.0027 -0.2444
vn 0.9533 -0.1080 -0.2819
vn 0.0000 -0.9985 -0.0549
vn -0.1751 -0.3181 -0.9317
vn -0.3296 -0.5622 -0.7585
vn -0.2783 -0.5133 -0.8118
vn -0.1545 -0.2508 -0.9556
vn -0.1068 -0.0928 -0.9899
vn -0.1046 -0.0538 -0.9931
vn -0.4487 -0.6863 -0.5723
vn -0.4268 -0.6780 -0.5985
vn -0.0845 -0.0050 -0.9964
vn -0.0843 -0.0050 -0.9964
vn -0.9140 -0.2456 0.3229
vn -0.9640 -0.1112 0.2417
vn -0.5667 -0.4802 0.6695
vn -0.7661 -0.3947 0.5072
vn 0.7685 -0.3971 0.5017
vn 0.5692 -0.4808 0.6670
vn 0.9060 -0.2551 0.3378
vn 0.9592 0.0067 0.2825
vn 0.0000 0.6635 0.7482
vn -0.9811 0.0011 0.1937
vn 0.9327 -0.1578 0.3243
vn -0.9155 -0.2439 0.3200
vn -0.9726 -0.0948 0.2122
vn -0.5647 -0.4815 0.6702
vn -0.7654 -0.3945 0.5085
vn 0.7686 -0.3976 0.5012
vn 0.5686 -0.4822 0.6665
vn 0.8996 -0.2605 0.3505
vn 0.9748 0.0002 0.2232
vn -0.9852 -0.0027 0.1715
vn 0.9574 -0.1085 0.2677
vn 1.0000 0.0026 0.0014
vn -0.0000 0.0003 -1.0000
vn 0.0001 0.0003 1.0000
vn -1.0000 0.0066 0.0004
vn -1.0000 0.0010 0.0007
vn -0.9992 -0.0215 0.0342
vn -1.0000 0.0016 -0.0000
vn 1.0000 -0.0023 -0.0000
vn 0.9991 0.0234 -0.0348
vn -0.0001 0.0001 -1.0000
vn 0.0000 0.0005 -1.0000
vn 0.0000 -0.0000 -1.0000
vn 1.0000 0.0051 -0.0000
vn 0.0000 0.0003 1.0000
vn 0.0000 0.0007 1.0000
vn 0.0000 -0.0000 1.0000
vn -0.0001 0.0011 1.0000
vn -0.0002 0.0002 1.0000
vn -0.0003 0.0001 1.0000
vn -1.0000 0.0004 0.0008
vn -1.0000 0.0013 -0.0009
vn -1.0000 -0.0066 -0.0000
vn 1.0000 -0.0016 -0.0000
vn 0.9989 -0.0228 0.0398
vn -0.9989 0.0271 -0.0384
vn -1.0000 0.0015 -0.0000
vn 0.9579 0.2872 -0.0000
vn 0.0000 0.2872 0.9579
vn 0.0000 0.2872 -0.9579
vn -0.9579 0.2872 -0.0000
vn -0.0000 -0.9917 -0.1283
vn -0.1239 -0.9923 -0.0000
vn 0.0000 -0.9922 0.1246
vn 0.1246 -0.9922 -0.0000
vn -0.9958 -0.0910 0.0001
vn -0.9398 -0.3417 0.0001
vn -0.9404 -0.3401 -0.0000
vn -0.9958 -0.0911 0.0001
vn 1.0000 -0.0002 -0.0000
vn 0.9958 -0.0911 -0.0000
vn 0.9404 -0.3402 -0.0003
vn 0.9393 -0.3431 -0.0000
vn 0.7729 -0.6345 -0.0004
vn 0.7707 -0.6372 -0.0000
vn 0.5591 -0.8291 0.0000
vn 0.5592 -0.8290 -0.0000
vn 0.0000 -1.0000 0.0001
vn -0.0004 -1.0000 0.0001
vn -0.5592 -0.8290 -0.0000
vn -0.5608 -0.8280 0.0001
vn -0.7728 -0.6346 -0.0002
vn -0.7729 -0.6345 0.0001
vn -1.0000 -0.0002 -0.0000
vn -1.0000 0.0001 0.0001
vn 1.0000 0.0000 0.0000
vn 0.0001 0.0019 1.0000
vn 0.0007 0.0006 1.0000
vn 0.0010 -0.0001 1.0000
vn -0.0005 0.0003 1.0000
vn -0.0004 0.0004 1.0000
vn -0.0009 0.0000 1.0000
vn 0.0000 -1.0000 -0.0000
vn 1.0000 0.0003 0.0081
vn 0.9999 0.0000 -0.0168
vn 0.9999 0.0089 -0.0094
vn 0.9999 0.0100 0.0035
vn 0.9999 0.0051 0.0121
vn -0.0000 1.0000 -0.0000
vn 0.4318 0.8456 0.3137
vn 0.5337 0.8456 -0.0000
vn 0.4318 0.8456 -0.3137
vn 0.1649 0.8457 -0.5076
vn -0.1649 0.8456 -0.5076
vn -0.4318 0.8456 -0.3137
vn -0.5337 0.8456 -0.0000
vn -0.4318 0.8456 0.3137
vn -0.1649 0.8456 0.5076
vn 0.1649 0.8457 0.5076
vn 0.7076 0.4848 -0.5141
vn 0.8746 0.4848 -0.0000
vn 0.2703 0.4848 -0.8318
vn -0.2703 0.4848 -0.8318
vn -0.7076 0.4848 -0.5141
vn -0.8746 0.4848 0.0000
vn -0.7076 0.4848 0.5141
vn -0.2703 0.4848 0.8318
vn 0.2703 0.4848 0.8318
vn 0.7076 0.4848 0.5141
vn 0.9913 0.1313 -0.0000
vn 0.8020 0.1313 -0.5827
vn 0.3063 0.1313 -0.9428
vn -0.3063 0.1313 -0.9428
vn -0.8020 0.1313 -0.5827
vn -0.9913 0.1313 0.0000
vn -0.8020 0.1313 0.5827
vn -0.3063 0.1313 0.9428
vn 0.3063 0.1313 0.9428
vn 0.8020 0.1313 0.5827
vn 0.8090 0.0000 -0.5878
vn 0.3090 0.0000 -0.9511
vn -0.3090 0.0000 -0.9511
vn -0.8090 0.0000 -0.5878
vn -0.8090 0.0000 0.5878
vn -0.3090 0.0000 0.9511
vn 0.3090 0.0000 0.9511
vn 0.8090 0.0000 0.5878
vn 0.0005 0.0811 0.9967
vn 0.0872 -0.9924 0.0868
vn 0.0005 -0.0932 -0.9956
vn -0.0226 0.1727 -0.9847
vn -0.0616 0.6401 -0.7658
vn -0.0842 0.9360 -0.3417
vn -0.0842 0.9811 0.1740
vn -0.0616 0.7634 0.6430
vn -0.0226 0.3410 0.9398
vn -0.9962 -0.0868 0.0076
vn 0.9962 0.0868 -0.0076
vn 0.9999 -0.0067 0.0090
vn -0.9511 0.0000 0.3090
vn -0.9511 0.0000 -0.3090
vn -0.5878 0.0000 -0.8090
vn 0.5878 0.0000 -0.8090
vn 0.9511 0.0000 -0.3090
vn 0.9511 0.0000 0.3090
vn 0.5878 0.0000 0.8090
vn -0.5878 0.0000 0.8090
vn -0.0050 0.0809 0.9967
vn 0.1544 -0.9842 0.0868
vn 0.0069 -0.0930 -0.9956
vn -0.0343 0.1707 -0.9847
vn -0.1050 0.6344 -0.7658
vn -0.1477 0.9281 -0.3417
vn -0.1507 0.9731 0.1740
vn -0.1134 0.7574 0.6430
vn -0.0457 0.3387 0.9398
vn -0.9880 -0.1544 0.0076
vn 0.9880 0.1544 -0.0076
vn 0.4053 -0.0565 0.9124
vn -0.2477 -0.9672 0.0569
vn -0.4084 0.0446 -0.9117
vn -0.3289 0.2991 -0.8957
vn -0.1126 0.7196 -0.6852
vn 0.1339 0.9473 -0.2910
vn 0.3445 0.9212 0.1811
vn 0.4628 0.6482 0.6047
vn 0.4571 0.2015 0.8663
vn -0.8793 0.2490 0.4060
vn 0.8793 -0.2490 -0.4060
vn -0.8793 0.2491 0.4060
vn -0.2611 -0.0082 0.9653
vn -0.9669 -0.0007 -0.2552
vn 0.2493 0.0082 -0.9684
vn 0.4967 0.0081 -0.8679
vn 0.8641 0.0063 -0.5032
vn 1.0000 0.0028 -0.0037
vn 0.8679 -0.0014 0.4968
vn 0.5032 -0.0053 0.8641
vn 0.0037 -0.0077 1.0000
vn -0.0028 1.0000 0.0077
vn 0.0028 -1.0000 -0.0077
vn -1.0000 0.0007 0.0007
vn -1.0000 0.0002 0.0010
vn -0.0021 -0.0033 1.0000
# 287 vertex normals

vt 0.0519 0.4764 0.0000
vt 0.0527 0.4177 0.0000
vt 0.0535 0.4192 0.0000
vt 0.0530 0.4754 0.0000
vt 0.0736 0.4177 0.0000
vt 0.0726 0.4190 0.0000
vt 0.0741 0.4764 0.0000
vt 0.0729 0.4767 0.0000
vt 0.0520 0.4165 0.0000
vt 0.0510 0.4774 0.0000
vt 0.0746 0.4163 0.0000
vt 0.0752 0.4763 0.0000
vt 0.4716 0.7292 0.0000
vt 0.4573 0.7292 0.0000
vt 0.4573 0.6368 0.0000
vt 0.4716 0.6368 0.0000
vt 0.5094 0.6368 0.0000
vt 0.5094 0.7594 0.0000
vt 0.4195 0.6368 0.0000
vt 0.4195 0.7594 0.0000
vt 0.0221 0.4757 0.0000
vt 0.0232 0.4154 0.0000
vt 0.0237 0.4167 0.0000
vt 0.0235 0.4757 0.0000
vt 0.0436 0.4172 0.0000
vt 0.0443 0.4159 0.0000
vt 0.0451 0.4769 0.0000
vt 0.0440 0.4754 0.0000
vt 0.0225 0.4145 0.0000
vt 0.0210 0.4757 0.0000
vt 0.0451 0.4147 0.0000
vt 0.0460 0.4778 0.0000
vt 0.0566 0.3423 0.0000
vt 0.0422 0.3424 0.0000
vt 0.0422 0.2499 0.0000
vt 0.0566 0.2499 0.0000
vt 0.0945 0.2499 0.0000
vt 0.0945 0.3725 0.0000
vt 0.0043 0.2499 0.0000
vt 0.0043 0.3725 0.0000
vt 0.1655 0.5647 0.0000
vt 0.1666 0.5632 0.0000
vt 0.1673 0.6225 0.0000
vt 0.1663 0.6214 0.0000
vt 0.1458 0.5634 0.0000
vt 0.1467 0.5648 0.0000
vt 0.1444 0.6224 0.0000
vt 0.1453 0.6226 0.0000
vt 0.1675 0.5620 0.0000
vt 0.1683 0.6234 0.0000
vt 0.1451 0.5622 0.0000
vt 0.1432 0.6223 0.0000
vt 0.0533 0.6368 0.0000
vt 0.0533 0.7293 0.0000
vt 0.0400 0.7292 0.0000
vt 0.0400 0.6368 0.0000
vt 0.0040 0.6368 0.0000
vt 0.0040 0.7595 0.0000
vt 0.0893 0.6368 0.0000
vt 0.0893 0.7594 0.0000
vt 0.1958 0.5642 0.0000
vt 0.1967 0.5630 0.0000
vt 0.1980 0.6209 0.0000
vt 0.1969 0.6208 0.0000
vt 0.1765 0.5646 0.0000
vt 0.1758 0.5634 0.0000
vt 0.1749 0.6222 0.0000
vt 0.1759 0.6213 0.0000
vt 0.1977 0.5620 0.0000
vt 0.1992 0.6208 0.0000
vt 0.1749 0.5627 0.0000
vt 0.1737 0.6234 0.0000
vt 0.4767 0.2496 0.0000
vt 0.4767 0.3424 0.0000
vt 0.4622 0.3424 0.0000
vt 0.4622 0.2496 0.0000
vt 0.4240 0.2496 0.0000
vt 0.4239 0.3727 0.0000
vt 0.5149 0.2496 0.0000
vt 0.5149 0.3727 0.0000
vt 0.4649 0.0617 0.0000
vt 0.7272 0.0617 0.0000
vt 0.7272 0.0764 0.0000
vt 0.4649 0.0764 0.0000
vt 0.4630 0.0950 0.0000
vt 0.7242 0.0950 0.0000
vt 0.7243 0.1105 0.0000
vt 0.4630 0.1105 0.0000
vt 0.5057 0.0208 0.0000
vt 0.5171 0.0194 0.0000
vt 0.5068 0.0222 0.0000
vt 0.9695 0.0194 0.0000
vt 0.9843 0.0201 0.0000
vt 0.9817 0.0219 0.0000
vt 0.4630 0.1152 0.0000
vt 0.7254 0.1152 0.0000
vt 0.7254 0.1180 0.0000
vt 0.4630 0.1180 0.0000
vt 0.5165 0.0129 0.0000
vt 0.5051 0.0140 0.0000
vt 0.9699 0.0130 0.0000
vt 0.9848 0.0131 0.0000
vt 0.4166 0.1171 0.0000
vt 0.4061 0.1376 0.0000
vt 0.3393 0.1376 0.0000
vt 0.3288 0.1171 0.0000
vt 0.4841 0.5986 0.0000
vt 0.4766 0.6104 0.0000
vt 0.4587 0.6105 0.0000
vt 0.4511 0.5988 0.0000
vt 0.3937 0.6000 0.0000
vt 0.3885 0.5841 0.0000
vt 0.4316 0.5838 0.0000
vt 0.4267 0.5998 0.0000
vt 0.4649 0.0561 0.0000
vt 0.4649 0.0527 0.0000
vt 0.7281 0.0527 0.0000
vt 0.7281 0.0561 0.0000
vt 0.7295 0.0764 0.0000
vt 0.7293 0.0617 0.0000
vt 0.9919 0.0618 0.0000
vt 0.9919 0.0764 0.0000
vt 0.7265 0.1105 0.0000
vt 0.7265 0.0950 0.0000
vt 0.9893 0.0950 0.0000
vt 0.9893 0.1105 0.0000
vt 0.5071 0.0334 0.0000
vt 0.5173 0.0367 0.0000
vt 0.5059 0.0353 0.0000
vt 0.9695 0.0367 0.0000
vt 0.9816 0.0332 0.0000
vt 0.9840 0.0345 0.0000
vt 0.9892 0.1152 0.0000
vt 0.9892 0.1180 0.0000
vt 0.9919 0.0561 0.0000
vt 0.5169 0.0425 0.0000
vt 0.5055 0.0423 0.0000
vt 0.7254 0.0907 0.0000
vt 0.9893 0.0907 0.0000
vt 0.9700 0.0425 0.0000
vt 0.9845 0.0413 0.0000
vt 0.0909 0.5949 0.0000
vt 0.0858 0.5789 0.0000
vt 0.1289 0.5789 0.0000
vt 0.1239 0.5948 0.0000
vt 0.0611 0.5956 0.0000
vt 0.0535 0.6073 0.0000
vt 0.0357 0.6074 0.0000
vt 0.0281 0.5957 0.0000
vt 0.9919 0.0527 0.0000
vt 0.7284 0.0815 0.0000
vt 0.9919 0.0815 0.0000
vt 0.5246 0.5642 0.0000
vt 0.9923 0.5641 0.0000
vt 0.9923 0.8177 0.0000
vt 0.5249 0.8179 0.0000
vt 0.5242 0.3800 0.0000
vt 0.5241 0.1267 0.0000
vt 0.9918 0.1266 0.0000
vt 0.9916 0.3800 0.0000
vt 0.2815 0.7327 0.0000
vt 0.2968 0.7336 0.0000
vt 0.2873 0.7528 0.0000
vt 0.2729 0.7479 0.0000
vt 0.2849 0.7205 0.0000
vt 0.2996 0.7186 0.0000
vt 0.2632 0.7581 0.0000
vt 0.2732 0.7688 0.0000
vt 0.2546 0.7758 0.0000
vt 0.2546 0.7608 0.0000
vt 0.2856 0.6369 0.0000
vt 0.2999 0.6369 0.0000
vt 0.2096 0.7184 0.0000
vt 0.0897 0.8005 0.0000
vt 0.0897 0.6368 0.0000
vt 0.2093 0.6368 0.0000
vt 0.8456 0.9461 0.0000
vt 0.8376 0.9572 0.0000
vt 0.8344 0.9441 0.0000
vt 0.8447 0.9372 0.0000
vt 0.8336 0.9338 0.0000
vt 0.8447 0.9302 0.0000
vt 0.8428 0.9666 0.0000
vt 0.8474 0.9524 0.0000
vt 0.8501 0.9565 0.0000
vt 0.8495 0.9728 0.0000
vt 0.8624 0.9571 0.0000
vt 0.8567 0.9667 0.0000
vt 0.8531 0.9523 0.0000
vt 0.8551 0.9459 0.0000
vt 0.8561 0.9371 0.0000
vt 0.8662 0.9440 0.0000
vt 0.8668 0.9340 0.0000
vt 0.8560 0.9302 0.0000
vt 0.8616 0.8932 0.0000
vt 0.8670 0.8822 0.0000
vt 0.8390 0.8932 0.0000
vt 0.8333 0.8822 0.0000
vt 0.6330 0.9441 0.0000
vt 0.6431 0.9372 0.0000
vt 0.6440 0.9460 0.0000
vt 0.6367 0.9572 0.0000
vt 0.6324 0.9339 0.0000
vt 0.6432 0.9303 0.0000
vt 0.6422 0.9667 0.0000
vt 0.6460 0.9524 0.0000
vt 0.6489 0.9565 0.0000
vt 0.6496 0.9728 0.0000
vt 0.6614 0.9573 0.0000
vt 0.6562 0.9667 0.0000
vt 0.6517 0.9524 0.0000
vt 0.6536 0.9462 0.0000
vt 0.6545 0.9373 0.0000
vt 0.6647 0.9442 0.0000
vt 0.6657 0.9339 0.0000
vt 0.6546 0.9303 0.0000
vt 0.6601 0.8933 0.0000
vt 0.6658 0.8823 0.0000
vt 0.6375 0.8933 0.0000
vt 0.6320 0.8823 0.0000
vt 0.2277 0.7326 0.0000
vt 0.2363 0.7477 0.0000
vt 0.2219 0.7527 0.0000
vt 0.2124 0.7334 0.0000
vt 0.2243 0.7203 0.0000
vt 0.2460 0.7580 0.0000
vt 0.2359 0.7687 0.0000
vt 0.2236 0.6368 0.0000
vt 0.6584 0.5087 0.0000
vt 0.6552 0.5219 0.0000
vt 0.6472 0.5108 0.0000
vt 0.6480 0.5019 0.0000
vt 0.6591 0.4983 0.0000
vt 0.6480 0.4947 0.0000
vt 0.6500 0.5314 0.0000
vt 0.6434 0.5376 0.0000
vt 0.6429 0.5213 0.0000
vt 0.6455 0.5171 0.0000
vt 0.6401 0.5171 0.0000
vt 0.6364 0.5315 0.0000
vt 0.6309 0.5218 0.0000
vt 0.6384 0.5107 0.0000
vt 0.6272 0.5087 0.0000
vt 0.6374 0.5018 0.0000
vt 0.6265 0.4986 0.0000
vt 0.6258 0.4466 0.0000
vt 0.6313 0.4576 0.0000
vt 0.6374 0.4947 0.0000
vt 0.6595 0.4466 0.0000
vt 0.6539 0.4576 0.0000
vt 0.8598 0.5084 0.0000
vt 0.8563 0.5217 0.0000
vt 0.8487 0.5106 0.0000
vt 0.8495 0.5016 0.0000
vt 0.8604 0.4982 0.0000
vt 0.8495 0.4945 0.0000
vt 0.8509 0.5314 0.0000
vt 0.8437 0.5375 0.0000
vt 0.8441 0.5212 0.0000
vt 0.8469 0.5170 0.0000
vt 0.8415 0.5170 0.0000
vt 0.8372 0.5314 0.0000
vt 0.8319 0.5218 0.0000
vt 0.8397 0.5107 0.0000
vt 0.8286 0.5086 0.0000
vt 0.8389 0.5017 0.0000
vt 0.8277 0.4982 0.0000
vt 0.8274 0.4464 0.0000
vt 0.8330 0.4574 0.0000
vt 0.8388 0.4946 0.0000
vt 0.8611 0.4464 0.0000
vt 0.8556 0.4574 0.0000
vt 0.4237 0.2498 0.0000
vt 0.4237 0.4144 0.0000
vt 0.0944 0.4144 0.0000
vt 0.0944 0.2498 0.0000
vt 0.9913 0.8291 0.0000
vt 0.5035 0.8294 0.0000
vt 0.5007 0.3936 0.0000
vt 0.9893 0.3931 0.0000
vt 0.4195 0.8006 0.0000
vt 0.2546 0.9978 0.0000
vt 0.4649 0.0815 0.0000
vt 0.5039 0.9878 0.0000
vt 0.0446 0.6159 0.0000
vt 0.0230 0.5797 0.0000
vt 0.0661 0.5796 0.0000
vt 0.0212 0.5671 0.0000
vt 0.0676 0.5670 0.0000
vt 0.0211 0.5031 0.0000
vt 0.0677 0.5030 0.0000
vt 0.1163 0.6065 0.0000
vt 0.1074 0.6151 0.0000
vt 0.0985 0.6066 0.0000
vt 0.0840 0.5663 0.0000
vt 0.1304 0.5663 0.0000
vt 0.0840 0.5023 0.0000
vt 0.1306 0.5022 0.0000
vt 0.4677 0.6190 0.0000
vt 0.4460 0.5829 0.0000
vt 0.4891 0.5826 0.0000
vt 0.4444 0.5703 0.0000
vt 0.4908 0.5700 0.0000
vt 0.4439 0.5062 0.0000
vt 0.4905 0.5060 0.0000
vt 0.4192 0.6116 0.0000
vt 0.4013 0.6117 0.0000
vt 0.3869 0.5715 0.0000
vt 0.4334 0.5712 0.0000
vt 0.3864 0.5075 0.0000
vt 0.4330 0.5072 0.0000
vt 0.2591 0.6129 0.0000
vt 0.5008 0.5525 0.0000
vt 0.9898 0.5521 0.0000
vt 0.9920 0.9876 0.0000
vt 0.4195 0.6369 0.0000
vt 0.3889 0.1527 0.0000
vt 0.3727 0.1628 0.0000
vt 0.3565 0.1527 0.0000
vt 0.3264 0.1008 0.0000
vt 0.4190 0.1008 0.0000
vt 0.3259 0.0087 0.0000
vt 0.4195 0.0087 0.0000
vt 0.4103 0.6201 0.0000
vt 0.4630 0.0907 0.0000
vt 0.1597 0.1177 0.0000
vt 0.2299 0.1177 0.0000
vt 0.1948 0.2413 0.0000
vt 0.0855 0.1183 0.0000
vt 0.1559 0.1183 0.0000
vt 0.1207 0.2423 0.0000
vt 0.0104 0.1184 0.0000
vt 0.0808 0.1184 0.0000
vt 0.0456 0.2424 0.0000
vt 0.2705 0.2424 0.0000
vt 0.2353 0.1184 0.0000
vt 0.3057 0.1184 0.0000
vt 0.2284 0.1112 0.0000
vt 0.1567 0.1110 0.0000
vt 0.1567 0.0073 0.0000
vt 0.2285 0.0075 0.0000
vt 0.1538 0.1162 0.0000
vt 0.0876 0.1162 0.0000
vt 0.2278 0.1155 0.0000
vt 0.1617 0.1155 0.0000
vt 0.0125 0.1162 0.0000
vt 0.0787 0.1162 0.0000
vt 0.3037 0.1162 0.0000
vt 0.2374 0.1162 0.0000
vt 0.4676 0.9146 0.0000
vt 0.4735 0.9146 0.0000
vt 0.4735 0.9823 0.0000
vt 0.4675 0.9823 0.0000
vt 0.4455 0.9823 0.0000
vt 0.4136 0.9823 0.0000
vt 0.4136 0.9147 0.0000
vt 0.4455 0.9147 0.0000
vt 0.3915 0.9823 0.0000
vt 0.3915 0.9147 0.0000
vt 0.3857 0.9823 0.0000
vt 0.3857 0.9147 0.0000
vt 0.3793 0.9823 0.0000
vt 0.3792 0.9147 0.0000
vt 0.3730 0.9823 0.0000
vt 0.3730 0.9147 0.0000
vt 0.3663 0.9823 0.0000
vt 0.3663 0.9146 0.0000
vt 0.3597 0.9823 0.0000
vt 0.3597 0.9146 0.0000
vt 0.3533 0.9823 0.0000
vt 0.3533 0.9146 0.0000
vt 0.3468 0.9823 0.0000
vt 0.3468 0.9146 0.0000
vt 0.1354 0.0838 0.0000
vt 0.1317 0.0896 0.0000
vt 0.2485 0.0546 0.0000
vt 0.3002 0.0078 0.0000
vt 0.2824 0.0548 0.0000
vt 0.0851 0.0071 0.0000
vt 0.0850 0.1108 0.0000
vt 0.0133 0.1108 0.0000
vt 0.0133 0.0070 0.0000
vt 0.1366 0.0542 0.0000
vt 0.1027 0.0541 0.0000
vt 0.1366 0.0777 0.0000
vt 0.1027 0.0775 0.0000
vt 0.1132 0.0936 0.0000
vt 0.1197 0.0966 0.0000
vt 0.1262 0.0937 0.0000
vt 0.1040 0.0836 0.0000
vt 0.1077 0.0894 0.0000
vt 0.2655 0.0973 0.0000
vt 0.3000 0.1116 0.0000
vt 0.2720 0.0944 0.0000
vt 0.2486 0.0780 0.0000
vt 0.2499 0.0842 0.0000
vt 0.2824 0.0783 0.0000
vt 0.2536 0.0901 0.0000
vt 0.2590 0.0942 0.0000
vt 0.2774 0.0902 0.0000
vt 0.2811 0.0845 0.0000
vt 0.3236 0.6282 0.0000
vt 0.3236 0.6186 0.0000
vt 0.3317 0.6186 0.0000
vt 0.3318 0.6282 0.0000
vt 0.3446 0.5753 0.0000
vt 0.3325 0.5753 0.0000
vt 0.3323 0.5706 0.0000
vt 0.3455 0.5706 0.0000
vt 0.3420 0.6009 0.0000
vt 0.3318 0.6007 0.0000
vt 0.3325 0.5776 0.0000
vt 0.3436 0.5777 0.0000
vt 0.3516 0.6087 0.0000
vt 0.3422 0.6088 0.0000
vt 0.3515 0.6010 0.0000
vt 0.3413 0.6092 0.0000
vt 0.3414 0.6187 0.0000
vt 0.3317 0.6088 0.0000
vt 0.3567 0.5707 0.0000
vt 0.3558 0.5752 0.0000
vt 0.3217 0.5755 0.0000
vt 0.3086 0.5755 0.0000
vt 0.3078 0.5710 0.0000
vt 0.3210 0.5709 0.0000
vt 0.3225 0.5778 0.0000
vt 0.3236 0.6009 0.0000
vt 0.3140 0.6005 0.0000
vt 0.3122 0.5779 0.0000
vt 0.3128 0.6011 0.0000
vt 0.3129 0.6089 0.0000
vt 0.3033 0.6089 0.0000
vt 0.3033 0.6011 0.0000
vt 0.3235 0.6089 0.0000
vt 0.3134 0.6188 0.0000
vt 0.3135 0.6093 0.0000
vt 0.3621 0.6010 0.0000
vt 0.3514 0.5914 0.0000
vt 0.3616 0.5915 0.0000
vt 0.3517 0.6194 0.0000
vt 0.3423 0.6195 0.0000
vt 0.3708 0.5915 0.0000
vt 0.3809 0.5916 0.0000
vt 0.3809 0.6011 0.0000
vt 0.3702 0.6011 0.0000
vt 0.3129 0.6196 0.0000
vt 0.3033 0.6196 0.0000
vt 0.3457 0.5584 0.0000
vt 0.3321 0.5584 0.0000
vt 0.3534 0.5778 0.0000
vt 0.3809 0.6089 0.0000
vt 0.3702 0.6089 0.0000
vt 0.3620 0.6088 0.0000
vt 0.1214 0.9822 0.0000
vt 0.1160 0.9859 0.0000
vt 0.1149 0.9820 0.0000
vt 0.1163 0.9782 0.0000
vt 0.1195 0.9760 0.0000
vt 0.1238 0.9761 0.0000
vt 0.1268 0.9786 0.0000
vt 0.1279 0.9825 0.0000
vt 0.1265 0.9863 0.0000
vt 0.1232 0.9885 0.0000
vt 0.1192 0.9884 0.0000
vt 0.1093 0.9673 0.0000
vt 0.1044 0.9761 0.0000
vt 0.0999 0.9761 0.0000
vt 0.0999 0.9673 0.0000
vt 0.1173 0.9673 0.0000
vt 0.1152 0.9761 0.0000
vt 0.1255 0.9673 0.0000
vt 0.1336 0.9673 0.0000
vt 0.1276 0.9761 0.0000
vt 0.1429 0.9673 0.0000
vt 0.1429 0.9761 0.0000
vt 0.1384 0.9761 0.0000
vt 0.1508 0.9673 0.0000
vt 0.1475 0.9761 0.0000
vt 0.0675 0.9673 0.0000
vt 0.0742 0.9673 0.0000
vt 0.0759 0.9761 0.0000
vt 0.0721 0.9761 0.0000
vt 0.0824 0.9673 0.0000
vt 0.0807 0.9761 0.0000
vt 0.0906 0.9673 0.0000
vt 0.0845 0.9761 0.0000
vt 0.0954 0.9761 0.0000
vt 0.0999 0.9553 0.0000
vt 0.1091 0.9553 0.0000
vt 0.1166 0.9553 0.0000
vt 0.1262 0.9553 0.0000
vt 0.1339 0.9553 0.0000
vt 0.1429 0.9553 0.0000
vt 0.1520 0.9553 0.0000
vt 0.0658 0.9553 0.0000
vt 0.0735 0.9553 0.0000
vt 0.0831 0.9553 0.0000
vt 0.0908 0.9553 0.0000
vt 0.1089 0.9112 0.0000
vt 0.0999 0.9112 0.0000
vt 0.1166 0.9112 0.0000
vt 0.1262 0.9112 0.0000
vt 0.1339 0.9112 0.0000
vt 0.1429 0.9112 0.0000
vt 0.1520 0.9112 0.0000
vt 0.0658 0.9112 0.0000
vt 0.0741 0.9112 0.0000
vt 0.0825 0.9112 0.0000
vt 0.0908 0.9112 0.0000
vt 0.0887 0.9002 0.0000
vt 0.0867 0.9063 0.0000
vt 0.0699 0.8941 0.0000
vt 0.0751 0.8904 0.0000
vt 0.4880 0.4444 0.0000
vt 0.4945 0.4448 0.0000
vt 0.4930 0.4829 0.0000
vt 0.4870 0.4813 0.0000
vt 0.4534 0.4440 0.0000
vt 0.4535 0.4377 0.0000
vt 0.4880 0.4381 0.0000
vt 0.4523 0.4808 0.0000
vt 0.4465 0.4818 0.0000
vt 0.4467 0.4442 0.0000
vt 0.4545 0.4874 0.0000
vt 0.4498 0.4910 0.0000
vt 0.4606 0.4921 0.0000
vt 0.4580 0.4976 0.0000
vt 0.4688 0.5000 0.0000
vt 0.4690 0.4939 0.0000
vt 0.4777 0.4926 0.0000
vt 0.4799 0.4982 0.0000
vt 0.4842 0.4880 0.0000
vt 0.4887 0.4919 0.0000
vt 0.4117 0.4809 0.0000
vt 0.4122 0.4434 0.0000
vt 0.0091 0.9937 0.0000
vt 0.0091 0.9806 0.0000
vt 0.0198 0.9806 0.0000
vt 0.0198 0.9937 0.0000
vt 0.0198 0.8544 0.0000
vt 0.0091 0.8544 0.0000
vt 0.0091 0.8414 0.0000
vt 0.0198 0.8414 0.0000
vt 0.0328 0.8544 0.0000
vt 0.0328 0.9806 0.0000
vt 0.0436 0.8544 0.0000
vt 0.0436 0.9806 0.0000
vt 0.3702 0.6185 0.0000
vt 0.3620 0.6185 0.0000
vt 0.3620 0.5782 0.0000
vt 0.3702 0.5782 0.0000
vt 0.4382 0.4946 0.0000
vt 0.4295 0.4967 0.0000
vt 0.4207 0.4947 0.0000
vt 0.4141 0.4889 0.0000
vt 0.4444 0.4892 0.0000
vt 0.0898 0.9002 0.0000
vt 0.0867 0.8941 0.0000
vt 0.0876 0.8934 0.0000
vt 0.0876 0.9070 0.0000
vt 0.0815 0.9101 0.0000
vt 0.0751 0.9101 0.0000
vt 0.0690 0.9070 0.0000
vt 0.0699 0.9063 0.0000
vt 0.0668 0.9002 0.0000
vt 0.0680 0.9002 0.0000
vt 0.0690 0.8934 0.0000
vt 0.0747 0.8892 0.0000
vt 0.0819 0.8892 0.0000
vt 0.0815 0.8904 0.0000
vt 0.4791 0.8479 0.0000
vt 0.4859 0.8483 0.0000
vt 0.4844 0.8884 0.0000
vt 0.4780 0.8868 0.0000
vt 0.4427 0.8475 0.0000
vt 0.4428 0.8408 0.0000
vt 0.4790 0.8412 0.0000
vt 0.4415 0.8862 0.0000
vt 0.4353 0.8873 0.0000
vt 0.4356 0.8477 0.0000
vt 0.4438 0.8932 0.0000
vt 0.4389 0.8970 0.0000
vt 0.4502 0.8981 0.0000
vt 0.4475 0.9039 0.0000
vt 0.4589 0.9064 0.0000
vt 0.4591 0.9000 0.0000
vt 0.4682 0.8986 0.0000
vt 0.4705 0.9045 0.0000
vt 0.4751 0.8938 0.0000
vt 0.4798 0.8979 0.0000
vt 0.3987 0.8863 0.0000
vt 0.3993 0.8469 0.0000
vt 0.4266 0.9007 0.0000
vt 0.4175 0.9029 0.0000
vt 0.4083 0.9008 0.0000
vt 0.4013 0.8947 0.0000
vt 0.4332 0.8950 0.0000
vt 0.3999 0.1825 0.0000
vt 0.4060 0.1828 0.0000
vt 0.4046 0.2179 0.0000
vt 0.3990 0.2165 0.0000
vt 0.3681 0.1821 0.0000
vt 0.3682 0.1762 0.0000
vt 0.3999 0.1766 0.0000
vt 0.3671 0.2160 0.0000
vt 0.3617 0.2169 0.0000
vt 0.3619 0.1823 0.0000
vt 0.3691 0.2221 0.0000
vt 0.3648 0.2254 0.0000
vt 0.3747 0.2264 0.0000
vt 0.3724 0.2315 0.0000
vt 0.3823 0.2337 0.0000
vt 0.3825 0.2281 0.0000
vt 0.3904 0.2268 0.0000
vt 0.3925 0.2320 0.0000
vt 0.3964 0.2226 0.0000
vt 0.4006 0.2262 0.0000
vt 0.3297 0.2160 0.0000
vt 0.3301 0.1816 0.0000
vt 0.3541 0.2287 0.0000
vt 0.3461 0.2306 0.0000
vt 0.3380 0.2288 0.0000
vt 0.3319 0.2234 0.0000
vt 0.3598 0.2237 0.0000
vt 0.4802 0.1854 0.0000
vt 0.4862 0.1857 0.0000
vt 0.4848 0.2208 0.0000
vt 0.4793 0.2193 0.0000
vt 0.4483 0.1850 0.0000
vt 0.4484 0.1791 0.0000
vt 0.4801 0.1795 0.0000
vt 0.4473 0.2189 0.0000
vt 0.4419 0.2198 0.0000
vt 0.4421 0.1851 0.0000
vt 0.4493 0.2250 0.0000
vt 0.4450 0.2283 0.0000
vt 0.4549 0.2293 0.0000
vt 0.4526 0.2343 0.0000
vt 0.4625 0.2365 0.0000
vt 0.4627 0.2309 0.0000
vt 0.4706 0.2297 0.0000
vt 0.4727 0.2348 0.0000
vt 0.4767 0.2255 0.0000
vt 0.4808 0.2291 0.0000
vt 0.4099 0.2189 0.0000
vt 0.4103 0.1844 0.0000
vt 0.4343 0.2315 0.0000
vt 0.4263 0.2335 0.0000
vt 0.4182 0.2316 0.0000
vt 0.4121 0.2263 0.0000
vt 0.4400 0.2265 0.0000
vt 0.4449 0.8321 0.0000
vt 0.4449 0.8227 0.0000
vt 0.4529 0.8227 0.0000
vt 0.4530 0.8321 0.0000
vt 0.4656 0.7799 0.0000
vt 0.4536 0.7800 0.0000
vt 0.4535 0.7753 0.0000
vt 0.4665 0.7754 0.0000
vt 0.4630 0.8053 0.0000
vt 0.4530 0.8051 0.0000
vt 0.4536 0.7822 0.0000
vt 0.4647 0.7823 0.0000
vt 0.4725 0.8130 0.0000
vt 0.4632 0.8130 0.0000
vt 0.4724 0.8053 0.0000
vt 0.4623 0.8134 0.0000
vt 0.4624 0.8228 0.0000
vt 0.4529 0.8130 0.0000
vt 0.4776 0.7754 0.0000
vt 0.4766 0.7799 0.0000
vt 0.4430 0.7802 0.0000
vt 0.4301 0.7802 0.0000
vt 0.4293 0.7758 0.0000
vt 0.4423 0.7756 0.0000
vt 0.4438 0.7824 0.0000
vt 0.4448 0.8052 0.0000
vt 0.4354 0.8048 0.0000
vt 0.4336 0.7826 0.0000
vt 0.4343 0.8054 0.0000
vt 0.4343 0.8131 0.0000
vt 0.4249 0.8131 0.0000
vt 0.4249 0.8055 0.0000
vt 0.4448 0.8131 0.0000
vt 0.4348 0.8228 0.0000
vt 0.4349 0.8135 0.0000
vt 0.4828 0.8054 0.0000
vt 0.4723 0.7959 0.0000
vt 0.4823 0.7959 0.0000
vt 0.4726 0.8234 0.0000
vt 0.4633 0.8236 0.0000
vt 0.4914 0.7960 0.0000
vt 0.5014 0.7960 0.0000
vt 0.5013 0.8054 0.0000
vt 0.4908 0.8054 0.0000
vt 0.4343 0.8237 0.0000
vt 0.4249 0.8237 0.0000
vt 0.4667 0.7633 0.0000
vt 0.4533 0.7633 0.0000
vt 0.4743 0.7825 0.0000
vt 0.5013 0.8131 0.0000
vt 0.4908 0.8131 0.0000
vt 0.4828 0.8130 0.0000
vt 0.4908 0.8226 0.0000
vt 0.4827 0.8226 0.0000
vt 0.4828 0.7828 0.0000
vt 0.4908 0.7828 0.0000
vt 0.0280 0.8303 0.0000
vt 0.0280 0.8210 0.0000
vt 0.0358 0.8210 0.0000
vt 0.0359 0.8303 0.0000
vt 0.0484 0.7790 0.0000
vt 0.0366 0.7790 0.0000
vt 0.0364 0.7745 0.0000
vt 0.0492 0.7745 0.0000
vt 0.0458 0.8039 0.0000
vt 0.0359 0.8037 0.0000
vt 0.0366 0.7813 0.0000
vt 0.0474 0.7814 0.0000
vt 0.0551 0.8114 0.0000
vt 0.0459 0.8115 0.0000
vt 0.0550 0.8039 0.0000
vt 0.0451 0.8119 0.0000
vt 0.0452 0.8211 0.0000
vt 0.0358 0.8115 0.0000
vt 0.0601 0.7746 0.0000
vt 0.0591 0.7790 0.0000
vt 0.0262 0.7792 0.0000
vt 0.0135 0.7793 0.0000
vt 0.0127 0.7749 0.0000
vt 0.0254 0.7748 0.0000
vt 0.0269 0.7814 0.0000
vt 0.0279 0.8038 0.0000
vt 0.0186 0.8034 0.0000
vt 0.0169 0.7816 0.0000
vt 0.0176 0.8040 0.0000
vt 0.0176 0.8116 0.0000
vt 0.0083 0.8116 0.0000
vt 0.0083 0.8041 0.0000
vt 0.0279 0.8116 0.0000
vt 0.0181 0.8212 0.0000
vt 0.0182 0.8120 0.0000
vt 0.0652 0.8040 0.0000
vt 0.0549 0.7947 0.0000
vt 0.0648 0.7947 0.0000
vt 0.0552 0.8217 0.0000
vt 0.0461 0.8219 0.0000
vt 0.0737 0.7948 0.0000
vt 0.0835 0.7948 0.0000
vt 0.0834 0.8041 0.0000
vt 0.0731 0.8040 0.0000
vt 0.0176 0.8220 0.0000
vt 0.0083 0.8220 0.0000
vt 0.0494 0.7626 0.0000
vt 0.0362 0.7626 0.0000
vt 0.0568 0.7815 0.0000
vt 0.0834 0.8116 0.0000
vt 0.0731 0.8116 0.0000
vt 0.0652 0.8115 0.0000
vt 0.0731 0.8209 0.0000
vt 0.0652 0.8209 0.0000
vt 0.0652 0.7819 0.0000
vt 0.0731 0.7819 0.0000
# 763 texture coords

o Chapel
g Chapel
usemtl chapel_obj_Chapel_Mat_
s off
f 1/1/1 2/2/1 3/3/1 
f 3/3/1 4/4/1 1/1/1 
f 3/3/2 2/2/2 5/5/2 
f 5/5/2 6/6/2 3/3/2 
f 7/7/3 8/8/3 6/6/3 
f 6/6/3 5/5/3 7/7/3 
f 6/6/4 8/8/4 4/4/4 
f 4/4/4 3/3/4 6/6/4 
f 9/9/5 2/2/5 1/1/5 
f 1/1/5 10/10/5 9/9/5 
f 11/11/6 5/5/6 2/2/6 
f 2/2/6 9/9/6 11/11/6 
f 11/11/7 12/12/7 7/7/7 
f 7/7/7 5/5/7 11/11/7 
f 11/13/8 9/14/8 13/15/8 
f 13/15/8 14/16/8 11/13/8 
f 11/13/9 14/16/9 15/17/9 
f 15/17/9 12/18/9 11/13/9 
f 16/19/10 13/15/10 9/14/10 
f 9/14/10 10/20/10 16/19/10 
f 4/4/11 8/8/11 10/10/11 
f 10/10/11 1/1/11 4/4/11 
f 17/21/12 18/22/12 19/23/12 
f 19/23/12 20/24/12 17/21/12 
f 21/25/2 19/23/2 18/22/2 
f 18/22/2 22/26/2 21/25/2 
f 23/27/3 24/28/3 21/25/3 
f 21/25/3 22/26/3 23/27/3 
f 25/29/13 18/22/13 17/21/13 
f 17/21/13 26/30/13 25/29/13 
f 27/31/14 28/32/14 23/27/14 
f 23/27/14 22/26/14 27/31/14 
f 19/23/4 21/25/4 24/28/4 
f 24/28/4 20/24/4 19/23/4 
f 22/26/15 18/22/15 25/29/15 
f 25/29/15 27/31/15 22/26/15 
f 27/33/8 25/34/8 29/35/8 
f 29/35/8 30/36/8 27/33/8 
f 27/33/16 30/36/16 31/37/16 
f 31/37/16 28/38/16 27/33/16 
f 32/39/17 29/35/17 25/34/17 
f 25/34/17 26/40/17 32/39/17 
f 24/28/18 23/27/18 28/32/18 
f 28/32/18 20/24/18 24/28/18 
f 33/41/19 34/42/19 35/43/19 
f 35/43/19 36/44/19 33/41/19 
f 37/45/20 34/42/20 33/41/20 
f 33/41/20 38/46/20 37/45/20 
f 39/47/21 37/45/21 38/46/21 
f 38/46/21 40/48/21 39/47/21 
f 36/44/22 40/48/22 38/46/22 
f 38/46/22 33/41/22 36/44/22 
f 35/43/23 34/42/23 41/49/23 
f 41/49/23 42/50/23 35/43/23 
f 34/42/24 37/45/24 43/51/24 
f 43/51/24 41/49/24 34/42/24 
f 43/51/25 37/45/25 39/47/25 
f 39/47/25 44/52/25 43/51/25 
f 45/53/26 41/54/26 43/55/26 
f 43/55/26 46/56/26 45/53/26 
f 47/57/9 46/56/9 43/55/9 
f 43/55/9 44/58/9 47/57/9 
f 41/54/27 45/53/27 48/59/27 
f 48/59/27 42/60/27 41/54/27 
f 36/44/8 35/43/8 42/50/8 
f 42/50/8 40/48/8 36/44/8 
f 49/61/28 50/62/28 51/63/28 
f 51/63/28 52/64/28 49/61/28 
f 50/62/20 49/61/20 53/65/20 
f 53/65/20 54/66/20 50/62/20 
f 55/67/21 54/66/21 53/65/21 
f 53/65/21 56/68/21 55/67/21 
f 51/63/29 50/62/29 57/69/29 
f 57/69/29 58/70/29 51/63/29 
f 59/71/30 54/66/30 55/67/30 
f 55/67/30 60/72/30 59/71/30 
f 56/68/22 53/65/22 49/61/22 
f 49/61/22 52/64/22 56/68/22 
f 57/69/31 50/62/31 54/66/31 
f 54/66/31 59/71/31 57/69/31 
f 61/73/26 57/74/26 59/75/26 
f 59/75/26 62/76/26 61/73/26 
f 63/77/32 62/76/32 59/75/32 
f 59/75/32 60/78/32 63/77/32 
f 57/74/33 61/73/33 64/79/33 
f 64/79/33 58/80/33 57/74/33 
f 60/72/34 55/67/34 56/68/34 
f 56/68/34 52/64/34 60/72/34 
f 65/81/35 66/82/35 67/83/35 
f 67/83/35 68/84/35 65/81/35 
f 69/85/36 70/86/36 71/87/36 
f 71/87/36 72/88/36 69/85/36 
f 73/89/37 74/90/37 75/91/37 
f 76/92/38 77/93/38 78/94/38 
f 77/95/39 79/96/39 80/97/39 
f 80/97/39 78/98/39 77/95/39 
f 68/99/40 74/90/40 73/89/40 
f 73/89/40 65/100/40 68/99/40 
f 69/101/41 72/102/41 77/93/41 
f 77/93/41 76/92/41 69/101/41 
f 81/103/27 82/104/27 83/105/27 
f 83/105/27 84/106/27 81/103/27 
f 85/107/26 86/108/26 87/109/26 
f 87/109/26 88/110/26 85/107/26 
f 89/111/26 90/112/26 91/113/26 
f 91/113/26 92/114/26 89/111/26 
f 73/115/42 75/116/42 93/117/42 
f 93/117/42 94/118/42 73/115/42 
f 95/119/43 96/120/43 97/121/43 
f 97/121/43 98/122/43 95/119/43 
f 99/123/44 100/124/44 101/125/44 
f 101/125/44 102/126/44 99/123/44 
f 103/127/45 104/128/45 105/129/45 
f 106/130/46 107/131/46 108/132/46 
f 80/97/47 79/96/47 108/133/47 
f 108/133/47 107/134/47 80/97/47 
f 97/121/48 96/120/48 94/118/48 
f 94/118/48 105/135/48 97/121/48 
f 105/129/49 104/128/49 98/136/49 
f 98/136/49 97/137/49 105/129/49 
f 101/125/50 100/124/50 109/138/50 
f 109/138/50 106/139/50 101/125/50 
f 101/140/51 106/130/51 108/132/51 
f 108/132/51 102/141/51 101/140/51 
f 110/142/8 111/143/8 112/144/8 
f 112/144/8 113/145/8 110/142/8 
f 114/146/8 115/147/8 116/148/8 
f 116/148/8 117/149/8 114/146/8 
f 99/123/52 71/87/52 70/86/52 
f 70/86/52 100/124/52 99/123/52 
f 93/117/53 103/150/53 105/135/53 
f 105/135/53 94/118/53 93/117/53 
f 118/151/54 95/119/54 98/122/54 
f 98/122/54 104/152/54 118/151/54 
f 66/82/55 96/120/55 95/119/55 
f 95/119/55 67/83/55 66/82/55 
f 79/96/56 99/123/56 102/126/56 
f 102/126/56 108/133/56 79/96/56 
f 104/153/57 106/154/57 109/155/57 
f 109/155/57 118/156/57 104/153/57 
f 109/157/58 76/158/58 74/159/58 
f 74/159/58 118/160/58 109/157/58 
f 76/92/59 78/94/59 75/91/59 
f 75/91/59 74/90/59 76/92/59 
f 119/161/60 84/162/61 83/163/62 
f 83/163/62 120/164/63 119/161/60 
f 121/165/64 122/166/65 84/162/61 
f 84/162/61 119/161/60 121/165/64 
f 123/167/66 124/168/67 125/169/68 
f 125/169/68 126/170/69 123/167/66 
f 120/164/63 83/163/62 124/168/67 
f 124/168/67 123/167/66 120/164/63 
f 127/171/70 128/172/71 122/166/65 
f 122/166/65 121/165/64 127/171/70 
f 121/173/27 75/174/27 48/175/27 
f 48/175/27 127/176/27 121/173/27 
f 89/177/72 129/178/72 130/179/72 
f 130/179/72 90/180/72 89/177/72 
f 131/181/73 132/182/73 90/180/73 
f 90/180/73 130/179/73 131/181/73 
f 133/183/74 134/184/74 135/185/74 
f 135/185/74 136/186/74 133/183/74 
f 134/184/75 133/183/75 129/178/75 
f 129/178/75 89/177/75 134/184/75 
f 137/187/76 138/188/76 139/189/76 
f 139/189/76 92/190/76 137/187/76 
f 135/185/77 139/189/77 138/188/77 
f 138/188/77 136/186/77 135/185/77 
f 92/190/78 91/191/78 140/192/78 
f 140/192/78 137/187/78 92/190/78 
f 141/193/79 142/194/79 143/195/79 
f 143/195/79 144/196/79 141/193/79 
f 144/196/80 143/195/80 145/197/80 
f 145/197/80 146/198/80 144/196/80 
f 131/181/81 146/198/81 145/197/81 
f 145/197/81 132/182/81 131/181/81 
f 141/193/82 140/192/82 91/191/82 
f 91/191/82 142/194/82 141/193/82 
f 147/199/83 148/200/83 88/201/83 
f 88/201/83 149/202/83 147/199/83 
f 148/200/84 147/199/84 150/203/84 
f 150/203/84 151/204/84 148/200/84 
f 152/205/85 87/206/85 153/207/85 
f 153/207/85 154/208/85 152/205/85 
f 87/206/86 152/205/86 149/202/86 
f 149/202/86 88/201/86 87/206/86 
f 155/209/87 156/210/87 86/211/87 
f 86/211/87 85/212/87 155/209/87 
f 153/207/88 86/211/88 156/210/88 
f 156/210/88 154/208/88 153/207/88 
f 85/212/89 157/213/89 158/214/89 
f 158/214/89 155/209/89 85/212/89 
f 159/215/90 160/216/90 161/217/90 
f 161/217/90 162/218/90 159/215/90 
f 161/217/80 163/219/80 164/220/80 
f 164/220/80 162/218/80 161/217/80 
f 163/219/91 151/204/91 150/203/91 
f 150/203/91 164/220/91 163/219/91 
f 159/215/92 158/214/92 157/213/92 
f 157/213/92 160/216/92 159/215/92 
f 103/127/93 107/131/93 106/130/93 
f 106/130/93 104/128/93 103/127/93 
f 165/221/94 166/222/95 82/223/96 
f 82/223/96 81/224/97 165/221/94 
f 167/225/98 165/221/94 81/224/97 
f 81/224/97 168/173/99 167/225/98 
f 169/226/100 126/170/69 125/169/68 
f 125/169/68 170/227/101 169/226/100 
f 166/222/95 169/226/100 170/227/101 
f 170/227/101 82/223/96 166/222/95 
f 171/228/102 167/225/98 168/173/99 
f 168/173/99 172/176/103 171/228/102 
f 173/229/104 174/230/104 114/231/104 
f 114/231/104 175/232/104 173/229/104 
f 176/233/105 173/229/105 175/232/105 
f 175/232/105 177/234/105 176/233/105 
f 178/235/106 179/236/106 180/237/106 
f 180/237/106 115/238/106 178/235/106 
f 174/230/107 178/235/107 115/238/107 
f 115/238/107 114/231/107 174/230/107 
f 116/239/108 181/240/108 182/241/108 
f 182/241/108 117/242/108 116/239/108 
f 180/237/109 179/236/109 181/240/109 
f 181/240/109 116/239/109 180/237/109 
f 117/242/110 182/241/110 183/243/110 
f 183/243/110 184/244/110 117/242/110 
f 185/245/111 186/246/111 187/247/111 
f 187/247/111 188/248/111 185/245/111 
f 189/249/112 190/250/112 187/247/112 
f 187/247/112 186/246/112 189/249/112 
f 176/233/113 177/234/113 190/250/113 
f 190/250/113 189/249/113 176/233/113 
f 185/245/114 188/248/114 184/244/114 
f 184/244/114 183/243/114 185/245/114 
f 191/251/115 192/252/115 113/253/115 
f 113/253/115 112/254/115 191/251/115 
f 193/255/116 191/251/116 112/254/116 
f 112/254/116 194/256/116 193/255/116 
f 195/257/117 196/258/117 197/259/117 
f 197/259/117 198/260/117 195/257/117 
f 192/252/118 195/257/118 198/260/118 
f 198/260/118 113/253/118 192/252/118 
f 199/261/119 200/262/119 201/263/119 
f 201/263/119 110/264/119 199/261/119 
f 197/259/120 196/258/120 200/262/120 
f 200/262/120 199/261/120 197/259/120 
f 110/264/121 201/263/121 202/265/121 
f 202/265/121 111/266/121 110/264/121 
f 203/267/122 204/268/122 205/269/122 
f 205/269/122 206/270/122 203/267/122 
f 207/271/112 208/272/112 205/269/112 
f 205/269/112 204/268/112 207/271/112 
f 193/255/123 194/256/123 208/272/123 
f 208/272/123 207/271/123 193/255/123 
f 203/267/124 206/270/124 111/266/124 
f 111/266/124 202/265/124 203/267/124 
f 63/273/125 78/274/125 107/275/125 
f 107/275/125 209/276/125 63/273/125 
f 48/277/126 146/198/126 162/218/126 
f 162/218/126 63/278/126 48/277/126 
f 204/268/127 189/249/127 210/279/127 
f 210/279/127 209/280/127 204/268/127 
f 126/169/128 103/281/128 93/282/128 
f 93/282/128 75/174/128 126/169/128 
f 126/169/129 169/168/129 103/281/129 
f 65/81/130 73/115/130 94/118/130 
f 94/118/130 66/82/130 65/81/130 
f 96/120/131 66/82/131 94/118/131 
f 118/151/132 67/83/132 95/119/132 
f 118/151/133 74/283/133 68/84/133 
f 68/84/133 67/83/133 118/151/133 
f 150/203/134 78/284/134 63/278/134 
f 63/278/134 164/220/134 150/203/134 
f 162/218/135 164/220/135 63/278/135 
f 48/277/26 144/196/26 146/198/26 
f 115/147/8 180/285/8 116/148/8 
f 184/286/8 175/287/8 114/146/8 
f 114/146/8 117/149/8 184/286/8 
f 188/288/8 177/289/8 175/287/8 
f 175/287/8 184/286/8 188/288/8 
f 187/290/8 190/291/8 177/289/8 
f 177/289/8 188/288/8 187/290/8 
f 198/292/8 197/293/8 199/294/8 
f 198/292/8 199/294/8 110/142/8 
f 110/142/8 113/145/8 198/292/8 
f 206/295/8 194/296/8 112/144/8 
f 112/144/8 111/143/8 206/295/8 
f 205/297/8 208/298/8 194/296/8 
f 194/296/8 206/295/8 205/297/8 
f 86/108/136 153/299/136 87/109/136 
f 148/300/26 157/301/26 85/107/26 
f 85/107/26 88/110/26 148/300/26 
f 151/302/136 160/303/136 157/301/136 
f 157/301/136 148/300/136 151/302/136 
f 163/304/26 161/305/26 160/303/26 
f 160/303/26 151/302/26 163/304/26 
f 139/306/26 134/307/26 89/111/26 
f 89/111/26 92/114/26 139/306/26 
f 132/308/136 142/309/136 91/113/136 
f 91/113/136 90/112/136 132/308/136 
f 145/310/26 143/311/26 142/309/26 
f 142/309/26 132/308/26 145/310/26 
f 78/274/137 80/312/137 107/275/137 
f 185/245/138 103/313/138 210/279/138 
f 210/279/138 186/246/138 185/245/138 
f 107/314/8 193/255/8 207/271/8 
f 207/271/8 209/280/8 107/314/8 
f 209/280/8 207/271/8 204/268/8 
f 189/249/139 186/246/139 210/279/139 
f 203/267/8 176/233/8 189/249/8 
f 189/249/8 204/268/8 203/267/8 
f 202/265/8 173/229/8 176/233/8 
f 176/233/8 203/267/8 202/265/8 
f 201/263/8 174/230/8 173/229/8 
f 173/229/8 202/265/8 201/263/8 
f 200/262/8 178/235/8 174/230/8 
f 174/230/8 201/263/8 200/262/8 
f 196/258/140 179/236/140 178/235/140 
f 178/235/140 200/262/140 196/258/140 
f 196/258/141 107/314/141 103/313/141 
f 103/313/141 179/236/141 196/258/141 
f 107/314/8 191/251/8 193/255/8 
f 196/258/140 195/257/140 107/314/140 
f 103/313/142 181/240/142 179/236/142 
f 103/313/143 183/243/143 182/241/143 
f 131/181/26 159/215/26 162/218/26 
f 162/218/26 146/198/26 131/181/26 
f 130/179/26 158/214/26 159/215/26 
f 159/215/26 131/181/26 130/179/26 
f 129/178/26 155/209/26 158/214/26 
f 158/214/26 130/179/26 129/178/26 
f 133/183/136 156/210/136 155/209/136 
f 155/209/136 129/178/136 133/183/136 
f 136/186/136 154/208/136 156/210/136 
f 156/210/136 133/183/136 136/186/136 
f 75/315/26 78/284/26 154/208/26 
f 154/208/26 136/186/26 75/315/26 
f 78/284/136 152/205/136 154/208/136 
f 136/186/136 138/188/136 75/315/136 
f 144/196/26 48/277/26 75/315/26 
f 75/315/26 141/193/26 144/196/26 
f 78/284/26 147/199/26 149/202/26 
f 137/187/26 140/192/26 75/315/26 
f 120/223/27 123/227/27 75/174/27 
f 166/163/144 165/162/144 103/281/144 
f 167/166/145 171/172/145 210/316/145 
f 210/316/145 103/281/145 167/166/145 
f 121/173/27 119/224/27 75/174/27 
f 170/317/146 125/318/146 124/319/146 
f 170/317/27 124/319/27 83/105/27 
f 83/105/27 82/104/27 170/317/27 
f 122/320/27 168/321/27 81/103/27 
f 81/103/27 84/106/27 122/320/27 
f 128/322/27 172/323/27 168/321/27 
f 168/321/27 122/320/27 128/322/27 
f 139/306/136 135/324/136 134/307/136 
f 79/96/147 71/87/147 99/123/147 
f 79/96/148 77/95/148 72/88/148 
f 72/88/148 71/87/148 79/96/148 
f 69/85/149 76/325/149 109/138/149 
f 109/138/149 70/86/149 69/85/149 
f 100/124/150 70/86/150 109/138/150 
f 211/326/151 212/327/151 213/328/151 
f 214/329/152 211/330/152 213/331/152 
f 212/332/153 215/333/153 213/334/153 
f 213/335/154 215/336/154 214/337/154 
f 216/338/27 217/339/27 218/340/27 
f 218/340/27 219/341/27 216/338/27 
f 220/342/155 211/330/155 214/329/155 
f 214/329/155 216/343/155 220/342/155 
f 221/344/156 212/327/156 211/326/156 
f 211/326/156 220/345/156 221/344/156 
f 215/333/157 212/332/157 221/346/157 
f 221/346/157 217/347/157 215/333/157 
f 216/348/158 214/337/158 215/336/158 
f 215/336/158 217/349/158 216/348/158 
f 222/350/159 223/351/160 224/352/161 
f 224/352/161 225/353/162 222/350/159 
f 226/354/52 227/355/52 228/356/52 
f 228/356/52 229/357/52 226/354/52 
f 228/356/163 227/355/163 230/358/164 
f 230/358/164 231/359/164 228/356/163 
f 230/358/164 232/360/165 233/361/166 
f 233/361/166 231/359/164 230/358/164 
f 234/362/167 235/363/168 233/361/166 
f 233/361/166 232/360/165 234/362/167 
f 234/362/167 236/364/169 237/365/170 
f 237/365/170 235/363/168 234/362/167 
f 237/365/170 236/364/169 238/366/171 
f 238/366/171 239/367/172 237/365/170 
f 238/366/171 240/368/173 241/369/174 
f 241/369/174 239/367/172 238/366/171 
f 241/369/174 240/368/173 242/370/175 
f 242/370/175 243/371/176 241/369/174 
f 242/370/175 224/372/161 223/373/160 
f 223/373/160 243/371/176 242/370/175 
f 226/354/177 229/357/178 222/350/159 
f 222/350/159 225/353/162 226/354/177 
f 232/374/18 217/339/18 234/375/18 
f 228/376/8 219/341/8 244/377/8 
f 244/377/8 229/378/8 228/376/8 
f 245/379/179 221/380/179 220/381/179 
f 220/381/179 244/382/179 245/379/179 
f 245/379/26 218/340/26 227/383/26 
f 227/383/26 226/384/26 245/379/26 
f 217/339/26 230/385/26 227/383/26 
f 227/383/26 218/340/26 217/339/26 
f 221/380/26 245/379/26 226/384/26 
f 226/384/26 225/386/26 221/380/26 
f 221/380/26 240/387/26 238/388/26 
f 217/339/26 221/380/26 238/388/26 
f 217/339/26 236/389/26 234/375/26 
f 221/380/26 224/390/26 242/391/26 
f 239/392/180 220/393/180 216/338/180 
f 239/392/181 241/394/181 220/393/181 
f 231/395/8 233/396/8 216/338/8 
f 229/378/182 244/377/182 220/393/182 
f 220/393/182 222/397/182 229/378/182 
f 235/398/8 237/399/8 216/338/8 
f 243/400/181 223/401/181 220/393/181 
f 228/376/8 231/395/8 216/338/8 
f 216/338/8 219/341/8 228/376/8 
f 246/402/52 247/403/52 248/404/52 
f 248/404/52 249/405/52 246/402/52 
f 250/406/8 251/407/8 252/408/8 
f 252/408/8 253/409/8 250/406/8 
f 254/410/8 255/411/8 256/412/8 
f 256/412/8 257/413/8 254/410/8 
f 258/414/8 259/415/8 260/410/8 
f 260/410/8 261/416/8 258/414/8 
f 262/417/183 249/418/139 248/404/184 
f 248/404/184 263/419/185 262/417/183 
f 264/420/9 265/421/9 250/406/9 
f 250/406/9 253/409/9 264/420/9 
f 266/422/26 265/423/26 264/424/26 
f 264/424/26 267/425/26 266/422/26 
f 268/426/26 269/427/26 270/428/26 
f 270/428/26 271/429/26 268/426/26 
f 272/430/26 273/431/26 274/432/26 
f 274/432/26 275/433/26 272/430/26 
f 276/434/26 247/403/26 246/435/26 
f 246/435/26 277/436/26 276/434/26 
f 252/408/27 251/407/27 266/422/27 
f 266/422/27 267/425/27 252/408/27 
f 260/410/27 259/415/27 263/419/27 
f 263/419/27 255/411/27 260/410/27 
f 254/437/186 261/416/186 260/438/186 
f 260/438/186 255/439/186 254/437/186 
f 262/440/52 263/441/52 259/415/52 
f 259/415/52 258/414/52 262/440/52 
f 269/442/186 272/443/186 275/444/186 
f 275/444/186 270/445/186 269/442/186 
f 274/432/52 273/431/52 276/446/52 
f 276/446/52 277/447/52 274/432/52 
f 264/448/186 253/409/186 252/408/186 
f 252/408/186 267/449/186 264/448/186 
f 256/412/52 251/407/52 250/406/52 
f 250/406/52 257/413/52 256/412/52 
f 268/426/52 266/422/52 251/407/52 
f 251/407/52 256/412/52 268/426/52 
f 271/429/52 265/423/52 266/422/52 
f 266/422/52 268/426/52 271/429/52 
f 257/413/52 250/406/52 265/421/52 
f 265/421/52 271/450/52 257/413/52 
f 275/444/9 274/451/9 277/452/187 
f 277/452/187 270/445/9 275/444/9 
f 276/434/27 269/427/27 255/411/27 
f 255/411/27 263/419/27 276/434/27 
f 272/430/27 269/427/27 276/434/27 
f 276/434/27 273/431/27 272/430/27 
f 258/414/188 261/416/189 254/437/190 
f 254/437/190 262/453/191 258/414/188 
f 270/445/9 277/452/187 262/453/191 
f 262/453/191 254/437/190 270/445/9 
f 278/454/192 279/455/193 280/456/194 
f 280/456/194 281/457/195 278/454/192 
f 278/454/192 281/457/195 282/458/196 
f 282/458/196 283/459/197 278/454/192 
f 278/454/192 283/459/197 284/460/198 
f 284/460/198 285/461/199 278/454/192 
f 278/454/192 285/461/199 286/462/200 
f 286/462/200 287/463/201 278/454/192 
f 278/454/192 287/463/201 288/464/202 
f 288/464/202 279/455/193 278/454/192 
f 289/465/203 281/466/195 280/467/194 
f 280/467/194 290/468/204 289/465/203 
f 289/465/203 291/469/205 282/458/196 
f 282/458/196 281/470/195 289/465/203 
f 292/471/206 283/459/197 282/458/196 
f 282/458/196 291/469/205 292/471/206 
f 292/471/206 293/472/207 284/473/198 
f 284/473/198 283/459/197 292/471/206 
f 294/474/208 285/475/199 284/476/198 
f 284/476/198 293/472/207 294/474/208 
f 294/474/208 295/477/209 286/478/200 
f 286/478/200 285/475/199 294/474/208 
f 295/479/209 296/480/210 287/481/201 
f 287/481/201 286/482/200 295/479/209 
f 296/480/210 297/483/211 288/484/202 
f 288/484/202 287/481/201 296/480/210 
f 298/485/212 279/486/193 288/484/202 
f 288/484/202 297/483/211 298/485/212 
f 298/485/212 290/468/204 280/467/194 
f 280/467/194 279/487/193 298/485/212 
f 299/488/213 300/489/214 289/465/203 
f 289/465/203 290/468/204 299/488/213 
f 300/489/214 301/490/215 291/469/205 
f 291/469/205 289/465/203 300/489/214 
f 301/490/215 302/491/216 292/471/206 
f 292/471/206 291/469/205 301/490/215 
f 303/492/217 293/472/207 292/471/206 
f 292/471/206 302/491/216 303/492/217 
f 303/492/217 304/493/218 294/474/208 
f 294/474/208 293/472/207 303/492/217 
f 304/493/218 305/494/219 295/477/209 
f 295/477/209 294/474/208 304/493/218 
f 305/495/219 306/496/220 296/480/210 
f 296/480/210 295/479/209 305/495/219 
f 307/497/221 297/483/211 296/480/210 
f 296/480/210 306/496/220 307/497/221 
f 307/497/221 308/498/222 298/485/212 
f 298/485/212 297/483/211 307/497/221 
f 308/498/222 299/488/213 290/468/204 
f 290/468/204 298/485/212 308/498/222 
f 309/499/223 300/489/214 299/488/213 
f 299/488/213 310/500/9 309/499/223 
f 309/499/223 311/501/224 301/490/215 
f 301/490/215 300/489/214 309/499/223 
f 312/502/225 302/491/216 301/490/215 
f 301/490/215 311/501/224 312/502/225 
f 312/502/225 313/503/226 303/492/217 
f 303/492/217 302/491/216 312/502/225 
f 314/504/27 304/493/218 303/492/217 
f 303/492/217 313/503/226 314/504/27 
f 314/504/27 315/505/227 305/494/219 
f 305/494/219 304/493/218 314/504/27 
f 315/506/227 316/507/228 306/496/220 
f 306/496/220 305/495/219 315/506/227 
f 316/507/228 317/508/229 307/497/221 
f 307/497/221 306/496/220 316/507/228 
f 318/509/230 308/498/222 307/497/221 
f 307/497/221 317/508/229 318/509/230 
f 318/509/230 310/500/9 299/488/213 
f 299/488/213 308/498/222 318/509/230 
f 319/510/186 320/511/186 321/512/186 
f 321/512/186 322/513/186 319/510/186 
f 323/514/231 324/515/231 325/516/231 
f 325/516/231 326/517/231 323/514/231 
f 327/518/232 328/519/232 324/520/232 
f 324/520/232 323/514/232 327/518/232 
f 329/521/233 330/522/233 328/523/233 
f 328/523/233 327/518/233 329/521/233 
f 331/524/234 332/525/234 330/522/234 
f 330/522/234 329/521/234 331/524/234 
f 333/526/235 334/527/235 332/525/235 
f 332/525/235 331/524/235 333/526/235 
f 335/528/236 334/527/236 333/526/236 
f 333/526/236 336/529/236 335/528/236 
f 337/530/237 338/531/237 335/528/237 
f 335/528/237 336/529/237 337/530/237 
f 339/532/238 340/533/238 338/531/238 
f 338/531/238 337/530/238 339/532/238 
f 326/517/239 325/516/239 340/533/239 
f 340/533/239 339/532/239 326/517/239 
f 339/532/240 337/530/240 333/526/240 
f 333/526/240 331/524/240 339/532/240 
f 328/523/241 330/522/241 325/534/241 
f 325/534/241 324/535/241 328/523/241 
f 341/536/26 342/537/26 343/538/26 
f 343/538/26 344/539/26 341/536/26 
f 345/540/8 346/541/8 347/542/8 
f 347/542/8 348/543/8 345/540/8 
f 343/538/186 345/540/186 348/544/186 
f 348/544/186 344/545/186 343/538/186 
f 342/537/9 346/541/9 345/540/9 
f 345/540/9 343/538/9 342/537/9 
f 344/545/27 348/544/27 347/546/27 
f 347/546/27 341/547/27 344/545/27 
f 246/548/9 249/549/242 262/453/191 
f 262/453/191 277/452/187 246/548/9 
f 257/550/9 271/551/9 270/445/9 
f 270/445/9 254/437/190 257/550/9 
f 248/404/27 247/403/27 276/434/27 
f 276/434/27 263/419/27 248/404/27 
f 268/426/27 256/412/27 255/411/27 
f 255/411/27 269/427/27 268/426/27 
f 334/552/241 335/553/241 338/554/241 
f 334/552/241 338/554/241 340/555/241 
f 340/555/241 332/556/241 334/552/241 
f 332/556/241 340/555/241 325/534/241 
f 325/534/241 330/522/241 332/556/241 
f 337/530/240 336/529/240 333/526/240 
f 329/521/240 326/517/240 339/532/240 
f 339/532/240 331/524/240 329/521/240 
f 327/518/240 323/514/240 326/517/240 
f 326/517/240 329/521/240 327/518/240 
f 310/557/186 349/510/186 350/558/186 
f 350/558/186 309/559/186 310/557/186 
f 318/560/186 351/511/186 349/510/186 
f 349/510/186 310/557/186 318/560/186 
f 317/508/186 352/561/186 351/511/186 
f 351/511/186 318/560/186 317/508/186 
f 316/507/186 353/562/186 352/561/186 
f 352/561/186 317/508/186 316/507/186 
f 315/563/186 354/564/186 353/562/186 
f 353/562/186 316/507/186 315/563/186 
f 314/565/186 355/566/186 354/564/186 
f 354/564/186 315/563/186 314/565/186 
f 313/567/186 356/512/186 355/566/186 
f 355/566/186 314/565/186 313/567/186 
f 312/568/186 357/513/186 356/512/186 
f 356/512/186 313/567/186 312/568/186 
f 311/569/186 358/570/186 357/513/186 
f 357/513/186 312/568/186 311/569/186 
f 309/559/186 350/558/186 358/570/186 
f 358/570/186 311/569/186 309/559/186 
f 359/562/186 360/564/186 361/566/186 
f 361/566/186 362/561/186 359/562/186 
f 362/561/186 361/566/186 321/512/186 
f 321/512/186 320/511/186 362/561/186 
f 363/570/186 364/558/186 319/510/186 
f 319/510/186 322/513/186 363/570/186 
f 349/510/243 319/510/243 364/558/243 
f 364/558/243 350/558/243 349/510/243 
f 351/511/244 320/511/244 319/510/244 
f 319/510/244 349/510/244 351/511/244 
f 352/561/245 362/561/245 320/511/245 
f 320/511/245 351/511/245 352/561/245 
f 353/562/26 359/562/26 362/561/26 
f 362/561/26 352/561/26 353/562/26 
f 354/564/246 360/564/246 359/562/246 
f 359/562/246 353/562/246 354/564/246 
f 355/566/247 361/566/247 360/564/247 
f 360/564/247 354/564/247 355/566/247 
f 356/512/248 321/512/248 361/566/248 
f 361/566/248 355/566/248 356/512/248 
f 357/513/249 322/513/249 321/512/249 
f 321/512/249 356/512/249 357/513/249 
f 358/570/8 363/570/8 322/513/8 
f 322/513/8 357/513/8 358/570/8 
f 350/558/250 364/558/250 363/570/250 
f 363/570/250 358/570/250 350/558/250 
f 365/571/251 366/572/251 367/573/251 
f 367/573/251 368/574/251 365/571/251 
f 369/575/252 370/576/252 366/577/252 
f 366/577/252 365/571/252 369/575/252 
f 371/578/253 372/579/253 370/580/253 
f 370/580/253 369/575/253 371/578/253 
f 373/581/254 374/582/254 372/579/254 
f 372/579/254 371/578/254 373/581/254 
f 375/583/255 376/584/255 374/582/255 
f 374/582/255 373/581/255 375/583/255 
f 377/585/256 376/584/256 375/583/256 
f 375/583/256 378/586/256 377/585/256 
f 379/587/257 380/588/257 377/585/257 
f 377/585/257 378/586/257 379/587/257 
f 381/589/258 382/590/258 380/588/258 
f 380/588/258 379/587/258 381/589/258 
f 368/574/259 367/573/259 382/590/259 
f 382/590/259 381/589/259 368/574/259 
f 381/589/260 379/587/260 375/583/260 
f 375/583/260 373/581/260 381/589/260 
f 370/580/261 372/579/261 367/591/261 
f 367/591/261 366/592/261 370/580/261 
f 376/593/261 377/594/261 380/595/261 
f 376/593/261 380/595/261 382/596/261 
f 382/596/261 374/597/261 376/593/261 
f 374/597/261 382/596/261 367/591/261 
f 367/591/261 372/579/261 374/597/261 
f 379/587/260 378/586/260 375/583/260 
f 371/578/260 368/574/260 381/589/260 
f 381/589/260 373/581/260 371/578/260 
f 369/575/260 365/571/260 368/574/260 
f 368/574/260 371/578/260 369/575/260 
f 383/598/262 384/599/262 385/600/262 
f 385/600/262 386/601/262 383/598/262 
f 387/602/263 388/603/263 384/604/263 
f 384/604/263 383/598/263 387/602/263 
f 389/605/264 390/606/264 388/607/264 
f 388/607/264 387/602/264 389/605/264 
f 391/608/265 392/609/265 390/606/265 
f 390/606/265 389/605/265 391/608/265 
f 393/610/266 394/611/266 392/609/266 
f 392/609/266 391/608/266 393/610/266 
f 395/612/267 394/611/267 393/610/267 
f 393/610/267 396/613/267 395/612/267 
f 397/614/268 398/615/268 395/612/268 
f 395/612/268 396/613/268 397/614/268 
f 399/616/269 400/617/269 398/615/269 
f 398/615/269 397/614/269 399/616/269 
f 386/601/270 385/600/270 400/617/270 
f 400/617/270 399/616/270 386/601/270 
f 399/616/271 397/614/271 393/610/271 
f 393/610/271 391/608/271 399/616/271 
f 388/607/272 390/606/272 385/618/272 
f 385/618/272 384/619/272 388/607/272 
f 394/620/272 395/621/272 398/622/272 
f 394/620/272 398/622/272 400/623/272 
f 400/623/272 392/624/272 394/620/272 
f 392/624/272 400/623/272 385/618/272 
f 385/618/272 390/606/272 392/624/272 
f 397/614/273 396/613/273 393/610/273 
f 389/605/271 386/601/271 399/616/271 
f 399/616/271 391/608/271 389/605/271 
f 387/602/271 383/598/271 386/601/271 
f 386/601/271 389/605/271 387/602/271 
f 401/625/274 402/626/274 403/627/274 
f 403/627/274 404/628/274 401/625/274 
f 405/629/275 406/630/275 402/631/275 
f 402/631/275 401/625/275 405/629/275 
f 407/632/276 408/633/276 406/634/276 
f 406/634/276 405/629/276 407/632/276 
f 409/635/277 410/636/277 408/633/277 
f 408/633/277 407/632/277 409/635/277 
f 411/637/278 412/638/278 410/636/278 
f 410/636/278 409/635/278 411/637/278 
f 413/639/279 412/638/279 411/637/279 
f 411/637/279 414/640/279 413/639/279 
f 415/641/280 416/642/280 413/639/280 
f 413/639/280 414/640/280 415/641/280 
f 417/643/281 418/644/281 416/642/281 
f 416/642/281 415/641/281 417/643/281 
f 404/628/282 403/627/282 418/644/282 
f 418/644/282 417/643/282 404/628/282 
f 417/643/283 415/641/283 411/637/283 
f 411/637/283 409/635/283 417/643/283 
f 406/634/284 408/633/284 403/645/284 
f 403/645/284 402/646/284 406/634/284 
f 412/647/284 413/648/284 416/649/284 
f 412/647/284 416/649/284 418/650/284 
f 418/650/284 410/651/284 412/647/284 
f 410/651/284 418/650/284 403/645/284 
f 403/645/284 408/633/284 410/651/284 
f 415/641/283 414/640/283 411/637/283 
f 407/632/283 404/628/283 417/643/283 
f 417/643/283 409/635/283 407/632/283 
f 405/629/283 401/625/283 404/628/283 
f 404/628/283 407/632/283 405/629/283 
f 419/652/52 420/653/52 421/654/52 
f 421/654/52 422/655/52 419/652/52 
f 423/656/8 424/657/8 425/658/8 
f 425/658/8 426/659/8 423/656/8 
f 427/660/8 428/661/8 429/662/8 
f 429/662/8 430/663/8 427/660/8 
f 431/664/8 432/665/8 433/660/8 
f 433/660/8 434/666/8 431/664/8 
f 435/667/183 422/668/139 421/654/184 
f 421/654/184 436/669/185 435/667/183 
f 437/670/9 438/671/9 423/656/9 
f 423/656/9 426/659/9 437/670/9 
f 439/672/26 438/673/26 437/674/26 
f 437/674/26 440/675/26 439/672/26 
f 441/676/26 442/677/26 443/678/26 
f 443/678/26 444/679/26 441/676/26 
f 445/680/26 446/681/26 447/682/26 
f 447/682/26 448/683/26 445/680/26 
f 449/684/26 420/653/26 419/685/26 
f 419/685/26 450/686/26 449/684/26 
f 425/658/27 424/657/27 439/672/27 
f 439/672/27 440/675/27 425/658/27 
f 433/660/27 432/665/27 436/669/27 
f 436/669/27 428/661/27 433/660/27 
f 427/687/186 434/666/186 433/688/186 
f 433/688/186 428/689/186 427/687/186 
f 435/690/52 436/691/52 432/665/52 
f 432/665/52 431/664/52 435/690/52 
f 442/692/186 445/693/186 448/694/186 
f 448/694/186 443/695/186 442/692/186 
f 447/682/52 446/681/52 449/696/52 
f 449/696/52 450/697/52 447/682/52 
f 437/698/186 426/659/186 425/658/186 
f 425/658/186 440/699/186 437/698/186 
f 429/662/52 424/657/52 423/656/52 
f 423/656/52 430/663/52 429/662/52 
f 441/676/52 439/672/52 424/657/52 
f 424/657/52 429/662/52 441/676/52 
f 444/679/52 438/673/52 439/672/52 
f 439/672/52 441/676/52 444/679/52 
f 430/663/52 423/656/52 438/671/52 
f 438/671/52 444/700/52 430/663/52 
f 448/694/9 447/701/9 450/702/187 
f 450/702/187 443/695/9 448/694/9 
f 449/684/27 442/677/27 428/661/27 
f 428/661/27 436/669/27 449/684/27 
f 445/680/27 442/677/27 449/684/27 
f 449/684/27 446/681/27 445/680/27 
f 431/664/188 434/666/189 427/687/190 
f 427/687/190 435/703/191 431/664/188 
f 443/695/9 450/702/187 435/703/191 
f 435/703/191 427/687/190 443/695/9 
f 419/704/9 422/705/242 435/703/191 
f 435/703/191 450/702/187 419/704/9 
f 430/706/9 444/707/9 443/695/9 
f 443/695/9 427/687/190 430/706/9 
f 421/654/27 420/653/27 449/684/27 
f 449/684/27 436/669/27 421/654/27 
f 441/676/27 429/662/27 428/661/27 
f 428/661/27 442/677/27 441/676/27 
f 451/708/52 452/709/52 453/710/52 
f 453/710/52 454/711/52 451/708/52 
f 455/712/8 456/713/8 457/714/8 
f 457/714/8 458/715/8 455/712/8 
f 459/716/8 460/717/8 461/718/8 
f 461/718/8 462/719/8 459/716/8 
f 463/720/8 464/721/8 465/716/8 
f 465/716/8 466/722/8 463/720/8 
f 467/723/183 454/724/139 453/710/184 
f 453/710/184 468/725/185 467/723/183 
f 469/726/9 470/727/9 455/712/9 
f 455/712/9 458/715/9 469/726/9 
f 471/728/26 470/729/26 469/730/26 
f 469/730/26 472/731/26 471/728/26 
f 473/732/26 474/733/26 475/734/26 
f 475/734/26 476/735/26 473/732/26 
f 477/736/26 478/737/26 479/738/26 
f 479/738/26 480/739/26 477/736/26 
f 481/740/26 452/709/26 451/741/26 
f 451/741/26 482/742/26 481/740/26 
f 457/714/27 456/713/27 471/728/27 
f 471/728/27 472/731/27 457/714/27 
f 465/716/27 464/721/27 468/725/27 
f 468/725/27 460/717/27 465/716/27 
f 459/743/186 466/722/186 465/744/186 
f 465/744/186 460/745/186 459/743/186 
f 467/746/52 468/747/52 464/721/52 
f 464/721/52 463/720/52 467/746/52 
f 474/748/186 477/749/186 480/750/186 
f 480/750/186 475/751/186 474/748/186 
f 479/738/52 478/737/52 481/752/52 
f 481/752/52 482/753/52 479/738/52 
f 469/754/186 458/715/186 457/714/186 
f 457/714/186 472/755/186 469/754/186 
f 461/718/52 456/713/52 455/712/52 
f 455/712/52 462/719/52 461/718/52 
f 473/732/52 471/728/52 456/713/52 
f 456/713/52 461/718/52 473/732/52 
f 476/735/52 470/729/52 471/728/52 
f 471/728/52 473/732/52 476/735/52 
f 462/719/52 455/712/52 470/727/52 
f 470/727/52 476/756/52 462/719/52 
f 480/750/9 479/757/9 482/758/187 
f 482/758/187 475/751/9 480/750/9 
f 481/740/27 474/733/27 460/717/27 
f 460/717/27 468/725/27 481/740/27 
f 477/736/27 474/733/27 481/740/27 
f 481/740/27 478/737/27 477/736/27 
f 463/720/188 466/722/189 459/743/190 
f 459/743/190 467/759/191 463/720/188 
f 475/751/9 482/758/187 467/759/191 
f 467/759/191 459/743/190 475/751/9 
f 451/760/9 454/761/242 467/759/191 
f 467/759/191 482/758/187 451/760/9 
f 462/762/9 476/763/9 475/751/9 
f 475/751/9 459/743/190 462/762/9 
f 453/710/27 452/709/27 481/740/27 
f 481/740/27 468/725/27 453/710/27 
f 473/732/27 461/718/27 460/717/27 
f 460/717/27 474/733/27 473/732/27 
f 169/168/285 166/163/285 103/281/285 
f 165/162/286 167/166/286 103/281/286 
f 123/227/27 126/169/27 75/174/27 
f 119/224/27 120/223/27 75/174/27 
f 103/313/143 182/241/143 181/240/143 
f 103/313/143 185/245/143 183/243/143 
f 195/257/8 192/252/8 107/314/8 
f 107/314/8 192/252/8 191/251/8 
f 78/284/136 149/202/136 152/205/136 
f 78/284/26 150/203/26 147/199/26 
f 138/188/136 137/187/136 75/315/136 
f 140/192/26 141/193/26 75/315/26 
f 221/380/26 242/391/26 240/387/26 
f 221/380/26 225/386/26 224/390/26 
f 217/339/26 238/388/26 236/389/26 
f 232/374/26 230/385/26 217/339/26 
f 237/399/287 239/392/287 216/338/287 
f 233/396/8 235/398/8 216/338/8 
f 241/394/181 243/400/181 220/393/181 
f 223/401/181 222/397/181 220/393/181 
# 878 faces

