# This file uses centimeters as units for non-parametric coordinates.

mtllib Roca09.mtl
g default
v 1.840513 2.283042 3.166327
v 0.581205 2.645347 3.008973
v 1.317954 2.233234 4.208823
v 1.525502 2.457092 2.197832
v 0.735206 2.600727 1.745064
v 0.064931 1.487075 4.007429
v -0.465749 1.684629 2.698528
v -0.224598 1.890936 1.616617
v 0.151720 2.427433 1.841587
v 1.507779 1.513915 4.369070
v 0.869999 1.435512 4.585694
v 2.197620 1.792231 3.035554
v 1.507779 1.513915 4.369070
v 1.772193 1.984375 1.796389
v 0.811277 2.020094 1.250780
v 0.811277 2.020094 1.250780
vt 0.329365 0.871126
vt 0.371496 0.865628
vt 0.345626 0.908648
vt 0.341213 0.837796
vt 0.367513 0.819270
vt 0.400266 0.909766
vt 0.419808 0.860206
vt 0.411809 0.820074
vt 0.388568 0.826505
vt 0.349025 0.935175
vt 0.372407 0.930854
vt 0.309495 0.867983
vt 0.321605 0.920934
vt 0.324765 0.822829
vt 0.353447 0.795966
vt 0.380738 0.794887
vn 0.653483 0.736361 0.175305
vn -0.282756 0.933440 0.220771
vn 0.218088 0.720518 0.658248
vn 0.502299 0.832587 -0.233442
vn 0.015938 0.887017 -0.461461
vn -0.282756 0.933440 0.220771
vn -0.560099 0.642308 0.523191
vn 0.218088 0.720518 0.658248
vn -0.282756 0.933440 0.220771
vn -0.721542 0.663011 0.199482
vn -0.282756 0.933440 0.220771
vn -0.639940 0.702538 -0.311316
vn -0.282756 0.933440 0.220771
vn -0.529762 0.783030 -0.325909
vn -0.639940 0.702538 -0.311316
vn -0.560099 0.642308 0.523191
vn -0.282756 0.933440 0.220771
vn -0.721542 0.663011 0.199482
vn 0.559173 0.345171 0.753779
vn 0.218088 0.720518 0.658248
vn -0.219023 0.514625 0.828969
vn 0.653483 0.736361 0.175305
vn 0.218088 0.720518 0.658248
vn 0.844808 0.518707 0.131313
vn 0.218088 0.720518 0.658248
vn 0.559173 0.345171 0.753779
vn 0.844808 0.518707 0.131313
vn 0.502299 0.832587 -0.233442
vn 0.653483 0.736361 0.175305
vn 0.613437 0.656252 -0.439350
vn 0.653483 0.736361 0.175305
vn 0.844808 0.518707 0.131313
vn 0.613437 0.656252 -0.439350
vn 0.015938 0.887017 -0.461461
vn 0.502299 0.832587 -0.233442
vn 0.057517 0.667125 -0.742722
vn 0.502299 0.832587 -0.233442
vn 0.613437 0.656252 -0.439350
vn 0.057517 0.667125 -0.742722
vn -0.639940 0.702538 -0.311316
vn -0.529762 0.783030 -0.325909
vn 0.057517 0.667125 -0.742722
vn 0.653483 0.736361 0.175305
vn 0.502299 0.832587 -0.233442
vn -0.282756 0.933440 0.220771
vn 0.015938 0.887017 -0.461461
vn -0.529762 0.783030 -0.325909
vn -0.282756 0.933440 0.220771
vn -0.529762 0.783030 -0.325909
vn 0.015938 0.887017 -0.461461
vn 0.057517 0.667125 -0.742722
vn -0.560099 0.642308 0.523191
vn -0.219023 0.514625 0.828969
vn 0.218088 0.720518 0.658248
s off
g polySurface464 tree_FBXASC032CopyFBXASC032Copy_ncl1_1
usemtl rock_low_02FBXASC032Copy_ncl1_1SG
f 1/1/1 2/2/2 3/3/3
f 4/4/4 5/5/5 2/2/6
f 6/6/7 3/3/8 2/2/9
f 7/7/10 2/2/11 8/8/12
f 2/2/13 9/9/14 8/8/15
f 6/6/16 2/2/17 7/7/18
f 10/10/19 3/3/20 11/11/21
f 1/1/22 3/3/23 12/12/24
f 3/3/25 13/13/26 12/12/27
f 4/4/28 1/1/29 14/14/30
f 1/1/31 12/12/32 14/14/33
f 5/5/34 4/4/35 15/15/36
f 4/4/37 14/14/38 15/15/39
f 8/8/40 9/9/41 16/16/42
f 1/1/43 4/4/44 2/2/45
f 5/5/46 9/9/47 2/2/48
f 9/9/49 5/5/50 16/16/51
f 6/6/52 11/11/53 3/3/54
